<?xml version="1.0" encoding="utf-8"?>
<!-- Generator: Adobe Illustrator 21.1.0, SVG Export Plug-In . SVG Version: 6.00 Build 0)  -->
<svg version="1.1" id="Ebene_1" xmlns="http://www.w3.org/2000/svg" xmlns:xlink="http://www.w3.org/1999/xlink" x="0px" y="0px"
	 viewBox="0 0 540 312.5" style="enable-background:new 0 0 540 312.5;" xml:space="preserve">
<style type="text/css">
	.st0{display:none;}
	.st1{display:inline;fill:#333333;}
	.st2{fill:#FCC836;}
	.st3{fill:#5A5F62;}
	.st4{fill:#FFFFFF;}
</style>
<g id="Ebene_2" class="st0">
	<rect x="-12" y="-7" class="st1" width="560" height="420"/>
</g>
<g id="Ebene_3">
	<g>
		<g>
			<g>
				<path class="st2" d="M43.3,58.8c4.7-0.5,8.3,2.7,8.4,7.2c0,2.4,0,4.8,0,7.3c0,0.9,0.1,1.7,1.2,1.7c1.1,0,1.1-0.8,1.1-1.7
					c0-2.6,0-5.1,0-7.7c0-4.7-3.9-8.8-8.6-9.2c-0.3,0-0.6-0.1-0.8-0.1c-1.6,0.2-2.2-0.6-2.2-2.1C50,53.5,56,58.7,56.2,66.4
					c0.1,6.8,0,13.5,0,20.3c0,1-0.3,1.4-1.4,1.4c-15.1,0-30.2,0-45.3,0c-1,0-1.4-0.4-1.4-1.4C8.1,79.8,8,73,8.1,66.1
					c0.2-7.5,6-12.4,13.9-11.8c-0.1,1.2-0.4,2-2,2c-6.4,0.1-10.2,5.3-9.7,10.3c0.2,2.2,0,4.4,0,6.6c0,0.8-0.1,1.9,1.1,1.8
					c1.2,0,1.1-1,1.1-1.9c0-2.6-0.1-5.1,0-7.7c0.2-4.2,4.2-7.4,8.4-6.6c-0.2,0.9-0.4,1.8-0.6,2.7C20,63,20.7,64,22,63.4
					c1.7-0.8,2.9-0.1,4.1,0.9c0.4,0.4,0.9,0.7,1.4,0.9c2.3,0.8,2.9,2.5,2.6,4.8c-0.2,1.4-0.1,2.8,0,4.2c0,1.6,0.6,2.2,2.1,2.2
					c1.4,0,1.9-0.6,1.9-2.1c0-2.1,0-4.2,0-6.3c0-0.8,0.2-1.4,1-1.8c1.1-0.6,2.1-1.2,3.1-1.9c1.2-1,2.3-1.6,4-0.9
					c1.4,0.6,2.1-0.4,1.8-2C43.7,60.6,43.6,59.7,43.3,58.8z M43,69.6c-1.4,0-2.8,0-4.2,0c-0.7,0-1.1,0.2-1.1,1c0,1.3-0.1,2.5,0,3.8
					c0.2,2.8,2.8,5.3,5.4,5.2c2.7-0.1,5.1-2.6,5.2-5.4c0-1.1,0-2.2,0-3.3c0-0.9-0.3-1.3-1.2-1.2C45.8,69.6,44.4,69.6,43,69.6z"/>
				<path class="st2" d="M22.4,28.5c0.4-0.4,0.8-0.7,0.9-1c0.4-1.4,0.8-2.8,1.2-4.3c0.5,0.2,0.8,0.4,1.3,0.7c0.7-1.5,1.3-3,2.1-4.8
					c0.4,0.6,0.6,1.1,1.1,2c1-1.6,1.9-3.1,2.9-4.6c0.3,1.1,0.6,2.4,0.9,3.6c0.7-0.1,1.3-0.2,1.8-0.3c0.8,1,1.6,2,2.4,3
					c0.3-0.2,0.8-0.4,0.9-0.4c0.9,1,1.8,1.9,2.5,2.9c0.5,0.7,0.4,1.7,0.8,2.5c0.2,0.5,0.6,0.9,0.9,1.4c0.1,0.2,0.2,0.5,0.2,0.7
					c0.1,1.2,0.2,2.3,0.3,3.5c0.2,1.1,0,2.3,1.5,2.8c0.4,0.2,0.9,1.3,0.7,1.9c-0.6,2.4-1,4.9-3.2,6.4c-0.2,0.2-0.4,0.5-0.5,0.8
					c-0.4,2.2-1.5,3.9-3,5.4c-1.5,1.5-1.4,2.1,0.4,3.2c0.7,0.4,1,2.5,0.2,3.3c-2,2-4.1,3.8-6.2,5.6c-0.2,0.2-0.9,0.1-1.1-0.1
					c-2-1.7-4-3.4-5.8-5.2c-1.2-1.3-0.7-2.9,0.8-3.6c0.9-0.4,1-1.5,0.2-2.5c-0.6-0.8-1.6-1.4-2-2.3c-1.2-3.1-3.5-5.5-4.6-8.5
					c-0.2-0.6-0.5-1.2-0.6-1.8c-0.3-1.3,0-2.4,1.4-3c0.4-0.2,0.7-0.7,0.8-1.1C22,32.6,22.2,30.5,22.4,28.5z"/>
				<path class="st2" d="M40.1,53.6c2.2,2.5,1.9,5.8,3,8.7c-0.4,0-0.7,0.1-0.8,0c-1.7-1-3-0.3-4.4,0.8c-1.1,0.9-2.4,1.6-3.7,2.3
					c-0.8,0.4-1.1,1-1.1,1.9c0,2.2,0,4.4,0,6.6c0,0.7,0,1.4-0.9,1.4c-1,0-0.9-0.8-0.9-1.4c0-2.6-0.1-5.1,0-7.7
					c0-0.6,0.5-1.2,0.9-1.6c2.1-1.8,4.3-3.5,6.5-5.3c1.5-1.3,1.9-2.9,1.4-4.8C40.1,54.2,40.1,53.9,40.1,53.6z"/>
				<path class="st2" d="M30.7,64.1c-0.2,0.3-0.4,0.8-0.8,1.4c-1.4-0.9-2.9-1.7-4.1-2.8c-1.1-0.9-2.2-1.1-3.4-0.5
					c-0.3,0.1-0.6,0.1-1.2,0.2c1-3,0.8-6.2,2.6-8.9c0.1,0,0.3,0,0.4,0c0,0.4,0,0.8-0.1,1.2c-0.4,1.5-0.1,2.9,1,4
					C27,60.6,28.8,62.3,30.7,64.1z"/>
				<path class="st3" d="M43,69.6c1.4,0,2.8,0,4.2,0c0.9,0,1.2,0.3,1.2,1.2c-0.1,1.1,0,2.2,0,3.3c-0.1,2.8-2.5,5.3-5.2,5.4
					c-2.6,0.1-5.2-2.4-5.4-5.2c-0.1-1.2,0-2.5,0-3.8c0-0.8,0.4-1,1.1-1C40.2,69.6,41.6,69.6,43,69.6z M38.9,70.8
					c0,1.3-0.1,2.4,0,3.5c0.2,2.2,1.9,3.9,3.8,4c1.9,0.1,3.7-1.1,4.2-3.1c0.3-1.4,0.3-2.9,0.4-4.4C44.4,70.8,41.7,70.8,38.9,70.8z"
					/>
				<path class="st2" d="M38.9,70.8c2.8,0,5.5,0,8.4,0c-0.1,1.5-0.1,3-0.4,4.4c-0.5,2-2.3,3.3-4.2,3.1c-1.9-0.1-3.6-1.8-3.8-4
					C38.8,73.2,38.9,72.1,38.9,70.8z M40.2,71.8c-0.2,2-0.3,3.8,1.5,5c1,0.6,2,0.5,3-0.2c1.2-1,1.6-2.7,1-4.7
					C44,71.8,42.1,71.8,40.2,71.8z"/>
				<path class="st3" d="M40.2,71.8c2,0,3.8,0,5.6,0c0.6,2,0.2,3.7-1,4.7c-0.9,0.8-2,0.9-3,0.2C39.9,75.6,40,73.8,40.2,71.8z"/>
			</g>
		</g>
		<g>
			<g>
				<path class="st2" d="M97.6,58.8c4.7-0.5,8.3,2.7,8.4,7.2c0,2.4,0,4.8,0,7.3c0,0.9,0.1,1.7,1.2,1.7c1.1,0,1.1-0.8,1.1-1.7
					c0-2.6,0-5.1,0-7.7c0-4.7-3.9-8.8-8.6-9.2c-0.3,0-0.6-0.1-0.8-0.1c-1.6,0.2-2.2-0.6-2.2-2c7.7-0.8,13.7,4.4,13.8,12.1
					c0.1,6.8,0,13.5,0,20.3c0,1-0.3,1.4-1.4,1.4c-15.1,0-30.2,0-45.3,0c-1,0-1.4-0.4-1.4-1.4c0-6.9-0.1-13.7,0.1-20.6
					c0.2-7.5,6-12.4,13.9-11.8c-0.1,1.2-0.4,2-2,2c-6.4,0.1-10.2,5.3-9.7,10.3c0.2,2.2,0,4.4,0,6.6c0,0.8-0.1,1.9,1.1,1.8
					c1.2,0,1.1-1,1.1-1.9c0-2.6-0.1-5.1,0-7.7c0.2-4.2,4.2-7.4,8.4-6.6c-0.2,0.9-0.4,1.8-0.6,2.7C74.3,63,75,64,76.3,63.4
					c1.7-0.8,2.9-0.1,4.1,0.9c0.4,0.4,0.9,0.7,1.4,0.9c2.3,0.8,2.9,2.5,2.6,4.8c-0.2,1.4-0.1,2.8,0,4.2c0,1.6,0.6,2.2,2.1,2.2
					c1.4,0,1.9-0.6,1.9-2.1c0-2.1,0-4.2,0-6.3c0-0.8,0.2-1.4,1-1.8c1.1-0.6,2.1-1.2,3.1-1.9c1.2-1,2.3-1.6,4-0.9
					c1.4,0.6,2.1-0.4,1.8-2C98,60.6,97.9,59.7,97.6,58.8z M97.3,69.6c-1.4,0-2.8,0-4.2,0c-0.7,0-1.1,0.2-1.1,1c0,1.3-0.1,2.5,0,3.8
					c0.2,2.8,2.8,5.3,5.4,5.2c2.7-0.1,5.1-2.6,5.2-5.4c0-1.1,0-2.2,0-3.3c0-0.9-0.3-1.3-1.2-1.2C100.1,69.6,98.7,69.6,97.3,69.6z"/>
				<path class="st2" d="M76.7,28.5c0.4-0.4,0.8-0.7,0.9-1c0.4-1.4,0.8-2.8,1.2-4.3c0.5,0.2,0.8,0.4,1.3,0.7c0.7-1.5,1.3-3,2.1-4.8
					c0.4,0.6,0.6,1.1,1.1,2c1-1.6,1.9-3.1,2.9-4.6c0.3,1.1,0.6,2.4,0.9,3.6c0.7-0.1,1.3-0.2,1.8-0.3c0.8,1,1.6,2,2.4,3
					c0.3-0.2,0.8-0.4,0.9-0.4c0.9,1,1.8,1.9,2.5,2.9c0.5,0.7,0.4,1.7,0.8,2.5c0.2,0.5,0.6,0.9,0.9,1.4c0.1,0.2,0.2,0.5,0.2,0.7
					c0.1,1.2,0.2,2.3,0.3,3.5c0.2,1.1,0,2.3,1.5,2.8c0.4,0.2,0.9,1.3,0.7,1.9c-0.6,2.4-1,4.9-3.2,6.4c-0.2,0.2-0.4,0.5-0.5,0.8
					c-0.4,2.2-1.5,3.9-3,5.4c-1.5,1.5-1.4,2.1,0.4,3.2c0.7,0.4,1,2.5,0.2,3.3c-2,2-4.1,3.8-6.2,5.6c-0.2,0.2-0.9,0.1-1.1-0.1
					c-2-1.7-4-3.4-5.8-5.2c-1.2-1.3-0.7-2.9,0.8-3.6c0.9-0.4,1-1.5,0.2-2.5c-0.6-0.8-1.6-1.4-2-2.3c-1.2-3.1-3.5-5.5-4.6-8.5
					c-0.2-0.6-0.5-1.2-0.6-1.8c-0.3-1.3,0-2.4,1.4-3c0.4-0.2,0.7-0.7,0.8-1.1C76.3,32.6,76.5,30.5,76.7,28.5z"/>
				<path class="st2" d="M94.4,53.6c2.2,2.5,1.9,5.8,3,8.7c-0.4,0-0.7,0.1-0.8,0c-1.7-1-3-0.3-4.4,0.8c-1.1,0.9-2.4,1.6-3.7,2.3
					c-0.8,0.4-1.1,1-1.1,1.9c0,2.2,0,4.4,0,6.6c0,0.7,0,1.4-0.9,1.4c-1,0-0.9-0.8-0.9-1.4c0-2.6-0.1-5.1,0-7.7
					c0-0.6,0.5-1.2,0.9-1.6c2.1-1.8,4.3-3.5,6.5-5.3c1.5-1.3,1.9-2.9,1.4-4.8C94.4,54.2,94.4,53.9,94.4,53.6z"/>
				<path class="st2" d="M85,64.1c-0.2,0.3-0.4,0.8-0.8,1.4c-1.4-0.9-2.9-1.7-4.1-2.8c-1.1-0.9-2.2-1.1-3.4-0.5
					c-0.3,0.1-0.6,0.1-1.2,0.2c1-3,0.8-6.2,2.6-8.9c0.1,0,0.3,0,0.4,0c0,0.4,0,0.8-0.1,1.2c-0.4,1.5-0.1,2.9,1,4
					C81.3,60.6,83.1,62.3,85,64.1z"/>
				<path class="st3" d="M97.3,69.6c1.4,0,2.8,0,4.2,0c0.9,0,1.2,0.3,1.2,1.2c-0.1,1.1,0,2.2,0,3.3c-0.1,2.8-2.5,5.3-5.2,5.4
					c-2.6,0.1-5.2-2.4-5.4-5.2c-0.1-1.2,0-2.5,0-3.8c0-0.8,0.4-1,1.1-1C94.5,69.6,95.9,69.6,97.3,69.6z M93.2,70.8
					c0,1.3-0.1,2.4,0,3.5c0.2,2.2,1.9,3.9,3.8,4c1.9,0.1,3.7-1.1,4.2-3.1c0.3-1.4,0.3-2.9,0.4-4.4C98.7,70.8,96,70.8,93.2,70.8z"/>
				<path class="st2" d="M93.2,70.8c2.8,0,5.5,0,8.4,0c-0.1,1.5-0.1,3-0.4,4.4c-0.5,2-2.3,3.3-4.2,3.1c-1.9-0.1-3.6-1.8-3.8-4
					C93.1,73.2,93.2,72.1,93.2,70.8z M94.5,71.8c-0.2,2-0.3,3.8,1.5,5c1,0.6,2,0.5,3-0.2c1.2-1,1.6-2.7,1-4.7
					C98.3,71.8,96.4,71.8,94.5,71.8z"/>
				<path class="st3" d="M94.5,71.8c2,0,3.8,0,5.6,0c0.6,2,0.2,3.7-1,4.7c-0.9,0.8-2,0.9-3,0.2C94.2,75.6,94.3,73.8,94.5,71.8z"/>
			</g>
		</g>
		<g>
			<g>
				<path class="st2" d="M151.9,58.8c4.7-0.5,8.3,2.7,8.4,7.2c0,2.4,0,4.8,0,7.3c0,0.9,0.1,1.7,1.2,1.7c1.1,0,1.1-0.8,1.1-1.7
					c0-2.6,0-5.1,0-7.7c0-4.7-3.9-8.8-8.6-9.2c-0.3,0-0.6-0.1-0.8-0.1c-1.6,0.2-2.2-0.6-2.2-2c7.7-0.8,13.7,4.4,13.8,12.1
					c0.1,6.8,0,13.5,0,20.3c0,1-0.3,1.4-1.4,1.4c-15.1,0-30.2,0-45.3,0c-1,0-1.4-0.4-1.4-1.4c0-6.9-0.1-13.7,0.1-20.6
					c0.2-7.5,6-12.4,13.9-11.8c-0.1,1.2-0.4,2-2,2c-6.4,0.1-10.2,5.3-9.7,10.3c0.2,2.2,0,4.4,0,6.6c0,0.8-0.1,1.9,1.1,1.8
					c1.2,0,1.1-1,1.1-1.9c0-2.6-0.1-5.1,0-7.7c0.2-4.2,4.2-7.4,8.4-6.6c-0.2,0.9-0.4,1.8-0.6,2.7c-0.4,1.5,0.4,2.4,1.7,1.9
					c1.7-0.8,2.9-0.1,4.1,0.9c0.4,0.4,0.9,0.7,1.4,0.9c2.3,0.8,2.9,2.5,2.6,4.8c-0.2,1.4-0.1,2.8,0,4.2c0,1.6,0.6,2.2,2.1,2.2
					c1.4,0,1.9-0.6,1.9-2.1c0-2.1,0-4.2,0-6.3c0-0.8,0.2-1.4,1-1.8c1.1-0.6,2.1-1.2,3.1-1.9c1.2-1,2.3-1.6,4-0.9
					c1.4,0.6,2.1-0.4,1.8-2C152.3,60.6,152.2,59.7,151.9,58.8z M151.6,69.6c-1.4,0-2.8,0-4.2,0c-0.7,0-1.1,0.2-1.1,1
					c0,1.3-0.1,2.5,0,3.8c0.2,2.8,2.8,5.3,5.4,5.2c2.7-0.1,5.1-2.6,5.2-5.4c0-1.1,0-2.2,0-3.3c0-0.9-0.3-1.3-1.2-1.2
					C154.4,69.6,153,69.6,151.6,69.6z"/>
				<path class="st2" d="M131,28.5c0.4-0.4,0.8-0.7,0.9-1c0.4-1.4,0.8-2.8,1.2-4.3c0.5,0.2,0.8,0.4,1.3,0.7c0.7-1.5,1.3-3,2.1-4.8
					c0.4,0.6,0.6,1.1,1.1,2c1-1.6,1.9-3.1,2.9-4.6c0.3,1.1,0.6,2.4,0.9,3.6c0.7-0.1,1.3-0.2,1.8-0.3c0.8,1,1.6,2,2.4,3
					c0.3-0.2,0.8-0.4,0.9-0.4c0.9,1,1.8,1.9,2.5,2.9c0.5,0.7,0.4,1.7,0.8,2.5c0.2,0.5,0.6,0.9,0.9,1.4c0.1,0.2,0.2,0.5,0.2,0.7
					c0.1,1.2,0.2,2.3,0.3,3.5c0.2,1.1,0,2.3,1.5,2.8c0.4,0.2,0.9,1.3,0.7,1.9c-0.6,2.4-1,4.9-3.2,6.4c-0.2,0.2-0.4,0.5-0.5,0.8
					c-0.4,2.2-1.5,3.9-3,5.4c-1.5,1.5-1.4,2.1,0.4,3.2c0.7,0.4,1,2.5,0.2,3.3c-2,2-4.1,3.8-6.2,5.6c-0.2,0.2-0.9,0.1-1.1-0.1
					c-2-1.7-4-3.4-5.8-5.2c-1.2-1.3-0.7-2.9,0.8-3.6c0.9-0.4,1-1.5,0.2-2.5c-0.6-0.8-1.6-1.4-2-2.3c-1.2-3.1-3.5-5.5-4.6-8.5
					c-0.2-0.6-0.5-1.2-0.6-1.8c-0.3-1.3,0-2.4,1.4-3c0.4-0.2,0.7-0.7,0.8-1.1C130.6,32.6,130.8,30.5,131,28.5z"/>
				<path class="st2" d="M148.7,53.6c2.2,2.5,1.9,5.8,3,8.7c-0.4,0-0.7,0.1-0.8,0c-1.7-1-3-0.3-4.4,0.8c-1.1,0.9-2.4,1.6-3.7,2.3
					c-0.8,0.4-1.1,1-1.1,1.9c0,2.2,0,4.4,0,6.6c0,0.7,0,1.4-0.9,1.4c-1,0-0.9-0.8-0.9-1.4c0-2.6-0.1-5.1,0-7.7
					c0-0.6,0.5-1.2,0.9-1.6c2.1-1.8,4.3-3.5,6.5-5.3c1.5-1.3,1.9-2.9,1.4-4.8C148.7,54.2,148.7,53.9,148.7,53.6z"/>
				<path class="st2" d="M139.3,64.1c-0.2,0.3-0.4,0.8-0.8,1.4c-1.4-0.9-2.9-1.7-4.1-2.8c-1.1-0.9-2.2-1.1-3.4-0.5
					c-0.3,0.1-0.6,0.1-1.2,0.2c1-3,0.8-6.2,2.6-8.9c0.1,0,0.3,0,0.4,0c0,0.4,0,0.8-0.1,1.2c-0.4,1.5-0.1,2.9,1,4
					C135.6,60.6,137.4,62.3,139.3,64.1z"/>
				<path class="st3" d="M151.6,69.6c1.4,0,2.8,0,4.2,0c0.9,0,1.2,0.3,1.2,1.2c-0.1,1.1,0,2.2,0,3.3c-0.1,2.8-2.5,5.3-5.2,5.4
					c-2.6,0.1-5.2-2.4-5.4-5.2c-0.1-1.2,0-2.5,0-3.8c0-0.8,0.4-1,1.1-1C148.8,69.6,150.2,69.6,151.6,69.6z M147.5,70.8
					c0,1.3-0.1,2.4,0,3.5c0.2,2.2,1.9,3.9,3.8,4c1.9,0.1,3.7-1.1,4.2-3.1c0.3-1.4,0.3-2.9,0.4-4.4C153,70.8,150.3,70.8,147.5,70.8z"
					/>
				<path class="st2" d="M147.5,70.8c2.8,0,5.5,0,8.4,0c-0.1,1.5-0.1,3-0.4,4.4c-0.5,2-2.3,3.3-4.2,3.1c-1.9-0.1-3.6-1.8-3.8-4
					C147.4,73.2,147.5,72.1,147.5,70.8z M148.8,71.8c-0.2,2-0.3,3.8,1.5,5c1,0.6,2,0.5,3-0.2c1.2-1,1.6-2.7,1-4.7
					C152.6,71.8,150.7,71.8,148.8,71.8z"/>
				<path class="st3" d="M148.8,71.8c2,0,3.8,0,5.6,0c0.6,2,0.2,3.7-1,4.7c-0.9,0.8-2,0.9-3,0.2C148.5,75.6,148.6,73.8,148.8,71.8z"
					/>
			</g>
		</g>
		<g>
			<g>
				<path class="st2" d="M206.2,58.8c4.7-0.5,8.3,2.7,8.4,7.2c0,2.4,0,4.8,0,7.3c0,0.9,0.1,1.7,1.2,1.7c1.1,0,1.1-0.8,1.1-1.7
					c0-2.6,0-5.1,0-7.7c0-4.7-3.9-8.8-8.6-9.2c-0.3,0-0.6-0.1-0.8-0.1c-1.6,0.2-2.2-0.6-2.2-2c7.7-0.8,13.7,4.4,13.8,12.1
					c0.1,6.8,0,13.5,0,20.3c0,1-0.3,1.4-1.4,1.4c-15.1,0-30.2,0-45.3,0c-1,0-1.4-0.4-1.4-1.4c0-6.9-0.1-13.7,0.1-20.6
					c0.2-7.5,6-12.4,13.9-11.8c-0.1,1.2-0.4,2-2,2c-6.4,0.1-10.2,5.3-9.7,10.3c0.2,2.2,0,4.4,0,6.6c0,0.8-0.1,1.9,1.1,1.8
					c1.2,0,1.1-1,1.1-1.9c0-2.6-0.1-5.1,0-7.7c0.2-4.2,4.2-7.4,8.4-6.6c-0.2,0.9-0.4,1.8-0.6,2.7c-0.4,1.5,0.4,2.4,1.7,1.9
					c1.7-0.8,2.9-0.1,4.1,0.9c0.4,0.4,0.9,0.7,1.4,0.9c2.3,0.8,2.9,2.5,2.6,4.8c-0.2,1.4-0.1,2.8,0,4.2c0,1.6,0.6,2.2,2.1,2.2
					c1.4,0,1.9-0.6,1.9-2.1c0-2.1,0-4.2,0-6.3c0-0.8,0.2-1.4,1-1.8c1.1-0.6,2.1-1.2,3.1-1.9c1.2-1,2.3-1.6,4-0.9
					c1.4,0.6,2.1-0.4,1.8-2C206.6,60.6,206.5,59.7,206.2,58.8z M205.9,69.6c-1.4,0-2.8,0-4.2,0c-0.7,0-1.1,0.2-1.1,1
					c0,1.3-0.1,2.5,0,3.8c0.2,2.8,2.8,5.3,5.4,5.2c2.7-0.1,5.1-2.6,5.2-5.4c0-1.1,0-2.2,0-3.3c0-0.9-0.3-1.3-1.2-1.2
					C208.7,69.6,207.3,69.6,205.9,69.6z"/>
				<path class="st2" d="M185.3,28.5c0.4-0.4,0.8-0.7,0.9-1c0.4-1.4,0.8-2.8,1.2-4.3c0.5,0.2,0.8,0.4,1.3,0.7c0.7-1.5,1.3-3,2.1-4.8
					c0.4,0.6,0.6,1.1,1.1,2c1-1.6,1.9-3.1,2.9-4.6c0.3,1.1,0.6,2.4,0.9,3.6c0.7-0.1,1.3-0.2,1.8-0.3c0.8,1,1.6,2,2.4,3
					c0.3-0.2,0.8-0.4,0.9-0.4c0.9,1,1.8,1.9,2.5,2.9c0.5,0.7,0.4,1.7,0.8,2.5c0.2,0.5,0.6,0.9,0.9,1.4c0.1,0.2,0.2,0.5,0.2,0.7
					c0.1,1.2,0.2,2.3,0.3,3.5c0.2,1.1,0,2.3,1.5,2.8c0.4,0.2,0.9,1.3,0.7,1.9c-0.6,2.4-1,4.9-3.2,6.4c-0.2,0.2-0.4,0.5-0.5,0.8
					c-0.4,2.2-1.5,3.9-3,5.4c-1.5,1.5-1.4,2.1,0.4,3.2c0.7,0.4,1,2.5,0.2,3.3c-2,2-4.1,3.8-6.2,5.6c-0.2,0.2-0.9,0.1-1.1-0.1
					c-2-1.7-4-3.4-5.8-5.2c-1.2-1.3-0.7-2.9,0.8-3.6c0.9-0.4,1-1.5,0.2-2.5c-0.6-0.8-1.6-1.4-2-2.3c-1.2-3.1-3.5-5.5-4.6-8.5
					c-0.2-0.6-0.5-1.2-0.6-1.8c-0.3-1.3,0-2.4,1.4-3c0.4-0.2,0.7-0.7,0.8-1.1C184.9,32.6,185.1,30.5,185.3,28.5z"/>
				<path class="st2" d="M203,53.6c2.2,2.5,1.9,5.8,3,8.7c-0.4,0-0.7,0.1-0.8,0c-1.7-1-3-0.3-4.4,0.8c-1.1,0.9-2.4,1.6-3.7,2.3
					c-0.8,0.4-1.1,1-1.1,1.9c0,2.2,0,4.4,0,6.6c0,0.7,0,1.4-0.9,1.4c-1,0-0.9-0.8-0.9-1.4c0-2.6-0.1-5.1,0-7.7
					c0-0.6,0.5-1.2,0.9-1.6c2.1-1.8,4.3-3.5,6.5-5.3c1.5-1.3,1.9-2.9,1.4-4.8C203,54.2,203,53.9,203,53.6z"/>
				<path class="st2" d="M193.6,64.1c-0.2,0.3-0.4,0.8-0.8,1.4c-1.4-0.9-2.9-1.7-4.1-2.8c-1.1-0.9-2.2-1.1-3.4-0.5
					c-0.3,0.1-0.6,0.1-1.2,0.2c1-3,0.8-6.2,2.6-8.9c0.1,0,0.3,0,0.4,0c0,0.4,0,0.8-0.1,1.2c-0.4,1.5-0.1,2.9,1,4
					C189.9,60.6,191.7,62.3,193.6,64.1z"/>
				<path class="st3" d="M205.9,69.6c1.4,0,2.8,0,4.2,0c0.9,0,1.2,0.3,1.2,1.2c-0.1,1.1,0,2.2,0,3.3c-0.1,2.8-2.5,5.3-5.2,5.4
					c-2.6,0.1-5.2-2.4-5.4-5.2c-0.1-1.2,0-2.5,0-3.8c0-0.8,0.4-1,1.1-1C203.1,69.6,204.5,69.6,205.9,69.6z M201.8,70.8
					c0,1.3-0.1,2.4,0,3.5c0.2,2.2,1.9,3.9,3.8,4c1.9,0.1,3.7-1.1,4.2-3.1c0.3-1.4,0.3-2.9,0.4-4.4C207.3,70.8,204.6,70.8,201.8,70.8
					z"/>
				<path class="st2" d="M201.8,70.8c2.8,0,5.5,0,8.4,0c-0.1,1.5-0.1,3-0.4,4.4c-0.5,2-2.3,3.3-4.2,3.1c-1.9-0.1-3.6-1.8-3.8-4
					C201.7,73.2,201.8,72.1,201.8,70.8z M203.1,71.8c-0.2,2-0.3,3.8,1.5,5c1,0.6,2,0.5,3-0.2c1.2-1,1.6-2.7,1-4.7
					C206.9,71.8,205,71.8,203.1,71.8z"/>
				<path class="st3" d="M203.1,71.8c2,0,3.8,0,5.6,0c0.6,2,0.2,3.7-1,4.7c-0.9,0.8-2,0.9-3,0.2C202.8,75.6,202.9,73.8,203.1,71.8z"
					/>
			</g>
		</g>
		<g>
			<g>
				<path class="st4" d="M260.5,58.8c4.7-0.5,8.3,2.7,8.4,7.2c0,2.4,0,4.8,0,7.3c0,0.9,0.1,1.7,1.2,1.7c1.1,0,1.1-0.8,1.1-1.7
					c0-2.6,0-5.1,0-7.7c0-4.7-3.9-8.8-8.6-9.2c-0.3,0-0.6-0.1-0.8-0.1c-1.6,0.2-2.2-0.6-2.2-2c7.7-0.8,13.7,4.4,13.8,12.1
					c0.1,6.8,0,13.5,0,20.3c0,1-0.3,1.4-1.4,1.4c-15.1,0-30.2,0-45.3,0c-1,0-1.4-0.4-1.4-1.4c0-6.9-0.1-13.7,0.1-20.6
					c0.2-7.5,6-12.4,13.9-11.8c-0.1,1.2-0.4,2-2,2c-6.4,0.1-10.2,5.3-9.7,10.3c0.2,2.2,0,4.4,0,6.6c0,0.8-0.1,1.9,1.1,1.8
					c1.2,0,1.1-1,1.1-1.9c0-2.6-0.1-5.1,0-7.7c0.2-4.2,4.3-7.4,8.4-6.6c-0.2,0.9-0.4,1.8-0.6,2.7c-0.4,1.5,0.4,2.4,1.7,1.9
					c1.7-0.8,2.9-0.1,4.1,0.9c0.4,0.4,0.9,0.7,1.4,0.9c2.3,0.8,2.9,2.5,2.6,4.8c-0.2,1.4-0.1,2.8,0,4.2c0,1.6,0.6,2.2,2.1,2.2
					c1.4,0,1.9-0.6,1.9-2.1c0-2.1,0-4.2,0-6.3c0-0.8,0.2-1.4,1-1.8c1.1-0.6,2.1-1.2,3.1-1.9c1.2-1,2.3-1.6,4-0.9
					c1.4,0.6,2.1-0.4,1.8-2C260.9,60.6,260.8,59.7,260.5,58.8z M260.2,69.6c-1.4,0-2.8,0-4.2,0c-0.7,0-1.1,0.2-1.1,1
					c0,1.3-0.1,2.5,0,3.8c0.2,2.8,2.8,5.3,5.4,5.2c2.7-0.1,5.1-2.6,5.2-5.4c0-1.1,0-2.2,0-3.3c0-0.9-0.3-1.3-1.2-1.2
					C263,69.6,261.6,69.6,260.2,69.6z"/>
				<path class="st4" d="M239.6,28.5c0.4-0.4,0.8-0.7,0.9-1c0.4-1.4,0.8-2.8,1.2-4.3c0.5,0.2,0.8,0.4,1.3,0.7c0.7-1.5,1.3-3,2.1-4.8
					c0.4,0.6,0.6,1.1,1.1,2c1-1.6,1.9-3.1,2.9-4.6c0.3,1.1,0.6,2.4,0.9,3.6c0.7-0.1,1.3-0.2,1.8-0.3c0.8,1,1.6,2,2.4,3
					c0.3-0.2,0.8-0.4,0.9-0.4c0.9,1,1.8,1.9,2.5,2.9c0.5,0.7,0.5,1.7,0.8,2.5c0.2,0.5,0.6,0.9,0.9,1.4c0.1,0.2,0.2,0.5,0.2,0.7
					c0.1,1.2,0.2,2.3,0.3,3.5c0.2,1.1,0,2.3,1.5,2.8c0.4,0.2,0.9,1.3,0.7,1.9c-0.6,2.4-1,4.9-3.2,6.4c-0.2,0.2-0.4,0.5-0.5,0.8
					c-0.4,2.2-1.5,3.9-3,5.4c-1.5,1.5-1.4,2.1,0.4,3.2c0.7,0.4,1,2.5,0.2,3.3c-2,2-4.1,3.8-6.2,5.6c-0.2,0.2-0.9,0.1-1.1-0.1
					c-2-1.7-4-3.4-5.8-5.2c-1.2-1.3-0.7-2.9,0.8-3.6c0.9-0.4,1-1.5,0.2-2.5c-0.6-0.8-1.6-1.4-2-2.3c-1.2-3.1-3.5-5.5-4.6-8.5
					c-0.2-0.6-0.5-1.2-0.6-1.8c-0.3-1.3,0-2.4,1.4-3c0.4-0.2,0.7-0.7,0.8-1.1C239.2,32.6,239.4,30.5,239.6,28.5z"/>
				<path class="st4" d="M257.3,53.6c2.2,2.5,1.9,5.8,3,8.7c-0.4,0-0.7,0.1-0.8,0c-1.7-1-3-0.3-4.4,0.8c-1.1,0.9-2.4,1.6-3.7,2.3
					c-0.8,0.4-1.1,1-1.1,1.9c0,2.2,0,4.4,0,6.6c0,0.7,0,1.4-0.9,1.4c-1,0-0.9-0.8-0.9-1.4c0-2.6-0.1-5.1,0-7.7
					c0-0.6,0.5-1.2,0.9-1.6c2.1-1.8,4.3-3.5,6.5-5.3c1.5-1.3,1.9-2.9,1.4-4.8C257.3,54.2,257.3,53.9,257.3,53.6z"/>
				<path class="st4" d="M247.9,64.1c-0.2,0.3-0.4,0.8-0.8,1.4c-1.4-0.9-2.9-1.7-4.1-2.8c-1.1-0.9-2.2-1.1-3.4-0.5
					c-0.3,0.1-0.6,0.1-1.2,0.2c1-3,0.8-6.2,2.6-8.9c0.1,0,0.3,0,0.4,0c0,0.4,0,0.8-0.1,1.2c-0.4,1.5-0.1,2.9,1,4
					C244.2,60.6,246,62.3,247.9,64.1z"/>
				<path class="st3" d="M260.2,69.6c1.4,0,2.8,0,4.2,0c0.9,0,1.2,0.3,1.2,1.2c-0.1,1.1,0,2.2,0,3.3c-0.1,2.8-2.5,5.3-5.2,5.4
					c-2.6,0.1-5.2-2.4-5.4-5.2c-0.1-1.2,0-2.5,0-3.8c0-0.8,0.4-1,1.1-1C257.4,69.6,258.8,69.6,260.2,69.6z M256.1,70.8
					c0,1.3-0.1,2.4,0,3.5c0.2,2.2,1.9,3.9,3.8,4c1.9,0.1,3.7-1.1,4.2-3.1c0.3-1.4,0.3-2.9,0.4-4.4C261.6,70.8,258.9,70.8,256.1,70.8
					z"/>
				<path class="st4" d="M256.1,70.8c2.8,0,5.5,0,8.4,0c-0.1,1.5-0.1,3-0.4,4.4c-0.5,2-2.3,3.3-4.2,3.1c-1.9-0.1-3.6-1.8-3.8-4
					C256,73.2,256.1,72.1,256.1,70.8z M257.4,71.8c-0.2,2-0.3,3.8,1.5,5c1,0.6,2,0.5,3-0.2c1.2-1,1.6-2.7,1-4.7
					C261.2,71.8,259.3,71.8,257.4,71.8z"/>
				<path class="st3" d="M257.4,71.8c2,0,3.8,0,5.6,0c0.6,2,0.2,3.7-1,4.7c-0.9,0.8-2,0.9-3,0.2C257.1,75.6,257.2,73.8,257.4,71.8z"
					/>
			</g>
		</g>
		<g>
			<g>
				<path class="st4" d="M314.8,58.8c4.7-0.5,8.3,2.7,8.4,7.2c0,2.4,0,4.8,0,7.3c0,0.9,0.1,1.7,1.2,1.7c1.1,0,1.1-0.8,1.1-1.7
					c0-2.6,0-5.1,0-7.7c0-4.7-3.9-8.8-8.6-9.2c-0.3,0-0.6-0.1-0.8-0.1c-1.5,0.2-2.2-0.6-2.2-2c7.7-0.8,13.7,4.4,13.8,12.1
					c0.1,6.8,0,13.5,0,20.3c0,1-0.3,1.4-1.4,1.4c-15.1,0-30.2,0-45.3,0c-1,0-1.4-0.4-1.4-1.4c0-6.9-0.1-13.7,0.1-20.6
					c0.2-7.5,6-12.4,13.9-11.8c-0.1,1.2-0.4,2-2,2c-6.4,0.1-10.2,5.3-9.7,10.3c0.2,2.2,0,4.4,0,6.6c0,0.8-0.1,1.9,1.1,1.8
					c1.2,0,1.1-1,1.1-1.9c0-2.6-0.1-5.1,0-7.7c0.2-4.2,4.2-7.4,8.4-6.6c-0.2,0.9-0.4,1.8-0.6,2.7c-0.4,1.5,0.4,2.4,1.7,1.9
					c1.7-0.8,2.9-0.1,4.1,0.9c0.4,0.4,0.9,0.7,1.4,0.9c2.3,0.8,2.9,2.5,2.6,4.8c-0.2,1.4-0.1,2.8,0,4.2c0,1.6,0.6,2.2,2.1,2.2
					c1.4,0,1.9-0.6,1.9-2.1c0-2.1,0-4.2,0-6.3c0-0.8,0.2-1.4,1-1.8c1.1-0.6,2.1-1.2,3.1-1.9c1.2-1,2.3-1.6,4-0.9
					c1.4,0.6,2.1-0.4,1.8-2C315.2,60.6,315.1,59.7,314.8,58.8z M314.5,69.6c-1.4,0-2.8,0-4.2,0c-0.7,0-1.1,0.2-1.1,1
					c0,1.3,0,2.5,0,3.8c0.2,2.8,2.8,5.3,5.4,5.2c2.7-0.1,5.1-2.6,5.2-5.4c0-1.1,0-2.2,0-3.3c0-0.9-0.3-1.3-1.2-1.2
					C317.3,69.6,315.9,69.6,314.5,69.6z"/>
				<path class="st4" d="M293.9,28.5c0.4-0.4,0.8-0.7,0.9-1c0.4-1.4,0.8-2.8,1.2-4.3c0.5,0.2,0.8,0.4,1.3,0.7c0.7-1.5,1.3-3,2.1-4.8
					c0.4,0.6,0.6,1.1,1.1,2c1-1.6,1.9-3.1,2.9-4.6c0.3,1.1,0.6,2.4,0.9,3.6c0.7-0.1,1.3-0.2,1.8-0.3c0.8,1,1.6,2,2.4,3
					c0.3-0.2,0.8-0.4,0.9-0.4c0.9,1,1.8,1.9,2.5,2.9c0.5,0.7,0.4,1.7,0.8,2.5c0.2,0.5,0.6,0.9,0.9,1.4c0.1,0.2,0.2,0.5,0.2,0.7
					c0.1,1.2,0.2,2.3,0.3,3.5c0.2,1.1,0,2.3,1.5,2.8c0.4,0.2,0.9,1.3,0.7,1.9c-0.6,2.4-1,4.9-3.2,6.4c-0.2,0.2-0.4,0.5-0.5,0.8
					c-0.4,2.2-1.5,3.9-3,5.4c-1.5,1.5-1.4,2.1,0.4,3.2c0.7,0.4,1,2.5,0.2,3.3c-2,2-4.1,3.8-6.2,5.6c-0.2,0.2-0.9,0.1-1.1-0.1
					c-2-1.7-4-3.4-5.8-5.2c-1.2-1.3-0.7-2.9,0.8-3.6c0.9-0.4,1-1.5,0.2-2.5c-0.6-0.8-1.6-1.4-2-2.3c-1.2-3.1-3.5-5.5-4.6-8.5
					c-0.2-0.6-0.5-1.2-0.6-1.8c-0.3-1.3,0-2.4,1.4-3c0.4-0.2,0.7-0.7,0.8-1.1C293.5,32.6,293.7,30.5,293.9,28.5z"/>
				<path class="st4" d="M311.6,53.6c2.2,2.5,1.9,5.8,3,8.7c-0.4,0-0.7,0.1-0.8,0c-1.7-1-3-0.3-4.4,0.8c-1.1,0.9-2.4,1.6-3.7,2.3
					c-0.8,0.4-1.1,1-1.1,1.9c0,2.2,0,4.4,0,6.6c0,0.7,0,1.4-0.9,1.4c-1,0-0.9-0.8-0.9-1.4c0-2.6-0.1-5.1,0-7.7
					c0-0.6,0.5-1.2,0.9-1.6c2.1-1.8,4.3-3.5,6.5-5.3c1.5-1.3,1.9-2.9,1.4-4.8C311.6,54.2,311.6,53.9,311.6,53.6z"/>
				<path class="st4" d="M302.2,64.1c-0.2,0.3-0.4,0.8-0.8,1.4c-1.4-0.9-2.9-1.7-4.1-2.8c-1.1-0.9-2.2-1.1-3.4-0.5
					c-0.3,0.1-0.6,0.1-1.2,0.2c1-3,0.8-6.2,2.6-8.9c0.1,0,0.3,0,0.4,0c0,0.4,0,0.8-0.1,1.2c-0.4,1.5-0.1,2.9,1,4
					C298.5,60.6,300.3,62.3,302.2,64.1z"/>
				<path class="st3" d="M314.5,69.6c1.4,0,2.8,0,4.2,0c0.9,0,1.2,0.3,1.2,1.2c-0.1,1.1,0,2.2,0,3.3c-0.1,2.8-2.5,5.3-5.2,5.4
					c-2.6,0.1-5.2-2.4-5.4-5.2c-0.1-1.2,0-2.5,0-3.8c0-0.8,0.4-1,1.1-1C311.7,69.6,313.1,69.6,314.5,69.6z M310.4,70.8
					c0,1.3-0.1,2.4,0,3.5c0.2,2.2,1.9,3.9,3.8,4c1.9,0.1,3.7-1.1,4.2-3.1c0.3-1.4,0.3-2.9,0.4-4.4C315.9,70.8,313.2,70.8,310.4,70.8
					z"/>
				<path class="st4" d="M310.4,70.8c2.8,0,5.5,0,8.4,0c-0.1,1.5-0.1,3-0.4,4.4c-0.5,2-2.3,3.3-4.2,3.1c-1.9-0.1-3.6-1.8-3.8-4
					C310.3,73.2,310.4,72.1,310.4,70.8z M311.7,71.8c-0.2,2-0.3,3.8,1.5,5c1,0.6,2,0.5,3-0.2c1.2-1,1.6-2.7,1-4.7
					C315.5,71.8,313.6,71.8,311.7,71.8z"/>
				<path class="st3" d="M311.7,71.8c2,0,3.8,0,5.6,0c0.6,2,0.2,3.7-1,4.7c-0.9,0.8-2,0.9-3,0.2C311.4,75.6,311.5,73.8,311.7,71.8z"
					/>
			</g>
		</g>
		<g>
			<g>
				<path class="st4" d="M423.4,58.8c4.7-0.5,8.3,2.7,8.4,7.2c0,2.4,0,4.8,0,7.3c0,0.9,0.1,1.7,1.2,1.7c1.1,0,1.1-0.8,1.1-1.7
					c0-2.6,0-5.1,0-7.7c0-4.7-3.9-8.8-8.6-9.2c-0.3,0-0.6-0.1-0.8-0.1c-1.6,0.2-2.2-0.6-2.2-2c7.7-0.8,13.7,4.4,13.8,12.1
					c0.1,6.8,0,13.5,0,20.3c0,1-0.3,1.4-1.4,1.4c-15.1,0-30.2,0-45.3,0c-1,0-1.4-0.4-1.4-1.4c0-6.9-0.1-13.7,0.1-20.6
					c0.2-7.5,6-12.4,13.9-11.8c-0.1,1.2-0.4,2-2,2c-6.4,0.1-10.2,5.3-9.7,10.3c0.2,2.2,0,4.4,0,6.6c0,0.8-0.1,1.9,1.1,1.8
					c1.2,0,1.1-1,1.1-1.9c0-2.6-0.1-5.1,0-7.7c0.2-4.2,4.3-7.4,8.4-6.6c-0.2,0.9-0.4,1.8-0.6,2.7c-0.4,1.5,0.4,2.4,1.7,1.9
					c1.7-0.8,2.9-0.1,4.1,0.9c0.4,0.4,0.9,0.7,1.4,0.9c2.3,0.8,2.9,2.5,2.6,4.8c-0.2,1.4-0.1,2.8,0,4.2c0,1.6,0.6,2.2,2.1,2.2
					c1.4,0,1.9-0.6,1.9-2.1c0-2.1,0-4.2,0-6.3c0-0.8,0.2-1.4,1-1.8c1.1-0.6,2.1-1.2,3.1-1.9c1.2-1,2.3-1.6,4-0.9
					c1.4,0.6,2.1-0.4,1.8-2C423.8,60.6,423.7,59.7,423.4,58.8z M423.1,69.6c-1.4,0-2.8,0-4.2,0c-0.7,0-1.1,0.2-1.1,1
					c0,1.3-0.1,2.5,0,3.8c0.2,2.8,2.8,5.3,5.4,5.2c2.7-0.1,5.1-2.6,5.2-5.4c0-1.1,0-2.2,0-3.3c0-0.9-0.2-1.3-1.2-1.2
					C425.9,69.6,424.5,69.6,423.1,69.6z"/>
				<path class="st4" d="M402.5,28.5c0.4-0.4,0.8-0.7,0.9-1c0.4-1.4,0.8-2.8,1.2-4.3c0.5,0.2,0.8,0.4,1.3,0.7c0.7-1.5,1.3-3,2.1-4.8
					c0.4,0.6,0.6,1.1,1.1,2c1-1.6,1.9-3.1,2.9-4.6c0.3,1.1,0.6,2.4,0.9,3.6c0.7-0.1,1.3-0.2,1.8-0.3c0.8,1,1.6,2,2.4,3
					c0.3-0.2,0.8-0.4,0.9-0.4c0.9,1,1.8,1.9,2.5,2.9c0.5,0.7,0.4,1.7,0.8,2.5c0.2,0.5,0.6,0.9,0.9,1.4c0.1,0.2,0.2,0.5,0.2,0.7
					c0.1,1.2,0.2,2.3,0.3,3.5c0.2,1.1,0,2.3,1.5,2.8c0.4,0.2,0.9,1.3,0.7,1.9c-0.6,2.4-1,4.9-3.2,6.4c-0.2,0.2-0.4,0.5-0.5,0.8
					c-0.4,2.2-1.5,3.9-3,5.4c-1.5,1.5-1.4,2.1,0.4,3.2c0.7,0.4,1,2.5,0.2,3.3c-2,2-4.1,3.8-6.2,5.6c-0.2,0.2-0.9,0.1-1.1-0.1
					c-2-1.7-4-3.4-5.8-5.2c-1.2-1.3-0.7-2.9,0.8-3.6c0.9-0.4,1-1.5,0.2-2.5c-0.6-0.8-1.6-1.4-2-2.3c-1.2-3.1-3.5-5.5-4.6-8.5
					c-0.2-0.6-0.5-1.2-0.6-1.8c-0.3-1.3,0-2.4,1.4-3c0.4-0.2,0.7-0.7,0.8-1.1C402.1,32.6,402.3,30.5,402.5,28.5z"/>
				<path class="st4" d="M420.2,53.6c2.2,2.5,1.9,5.8,3,8.7c-0.4,0-0.7,0.1-0.8,0c-1.7-1-3-0.3-4.4,0.8c-1.1,0.9-2.4,1.6-3.7,2.3
					c-0.8,0.4-1.1,1-1.1,1.9c0,2.2,0,4.4,0,6.6c0,0.7,0,1.4-0.9,1.4c-1,0-0.9-0.8-0.9-1.4c0-2.6-0.1-5.1,0-7.7
					c0-0.6,0.5-1.2,0.9-1.6c2.1-1.8,4.3-3.5,6.5-5.3c1.5-1.3,1.9-2.9,1.4-4.8C420.2,54.2,420.2,53.9,420.2,53.6z"/>
				<path class="st4" d="M410.8,64.1c-0.2,0.3-0.4,0.8-0.8,1.4c-1.4-0.9-2.9-1.7-4.1-2.8c-1.1-0.9-2.2-1.1-3.4-0.5
					c-0.3,0.1-0.6,0.1-1.2,0.2c1-3,0.8-6.2,2.6-8.9c0.1,0,0.3,0,0.4,0c0,0.4,0,0.8-0.1,1.2c-0.4,1.5-0.1,2.9,1,4
					C407.1,60.6,408.9,62.3,410.8,64.1z"/>
				<path class="st3" d="M423.1,69.6c1.4,0,2.8,0,4.2,0c0.9,0,1.2,0.3,1.2,1.2c-0.1,1.1,0,2.2,0,3.3c-0.1,2.8-2.5,5.3-5.2,5.4
					c-2.6,0.1-5.2-2.4-5.4-5.2c-0.1-1.2,0-2.5,0-3.8c0-0.8,0.4-1,1.1-1C420.3,69.6,421.7,69.6,423.1,69.6z M419,70.8
					c0,1.3-0.1,2.4,0,3.5c0.2,2.2,1.9,3.9,3.8,4c1.9,0.1,3.7-1.1,4.2-3.1c0.3-1.4,0.3-2.9,0.4-4.4C424.5,70.8,421.8,70.8,419,70.8z"
					/>
				<path class="st4" d="M419,70.8c2.8,0,5.5,0,8.4,0c-0.1,1.5-0.1,3-0.4,4.4c-0.5,2-2.3,3.3-4.2,3.1c-1.9-0.1-3.6-1.8-3.8-4
					C418.9,73.2,419,72.1,419,70.8z M420.3,71.8c-0.2,2-0.3,3.8,1.5,5c1,0.6,2,0.5,3-0.2c1.2-1,1.6-2.7,1-4.7
					C424.1,71.8,422.2,71.8,420.3,71.8z"/>
				<path class="st3" d="M420.3,71.8c2,0,3.8,0,5.6,0c0.6,2,0.2,3.7-1,4.7c-0.9,0.8-2,0.9-3,0.2C420,75.6,420.1,73.8,420.3,71.8z"/>
			</g>
		</g>
		<g>
			<g>
				<path class="st4" d="M477.7,58.8c4.7-0.5,8.3,2.7,8.4,7.2c0,2.4,0,4.8,0,7.3c0,0.9,0.1,1.7,1.2,1.7c1.1,0,1.1-0.8,1.1-1.7
					c0-2.6,0-5.1,0-7.7c0-4.7-3.9-8.8-8.6-9.2c-0.3,0-0.6-0.1-0.8-0.1c-1.6,0.2-2.2-0.6-2.2-2c7.7-0.8,13.7,4.4,13.8,12.1
					c0.1,6.8,0,13.5,0,20.3c0,1-0.3,1.4-1.4,1.4c-15.1,0-30.2,0-45.3,0c-1,0-1.4-0.4-1.4-1.4c0-6.9-0.1-13.7,0.1-20.6
					c0.2-7.5,6-12.4,13.8-11.8c-0.1,1.2-0.4,2-2,2c-6.4,0.1-10.2,5.3-9.7,10.3c0.2,2.2,0,4.4,0,6.6c0,0.8-0.1,1.9,1.1,1.8
					c1.2,0,1.1-1,1.1-1.9c0-2.6-0.1-5.1,0-7.7c0.2-4.2,4.2-7.4,8.4-6.6c-0.2,0.9-0.4,1.8-0.6,2.7c-0.4,1.5,0.4,2.4,1.7,1.9
					c1.7-0.8,2.9-0.1,4.1,0.9c0.4,0.4,0.9,0.7,1.4,0.9c2.3,0.8,2.9,2.5,2.6,4.8c-0.2,1.4-0.1,2.8,0,4.2c0,1.6,0.6,2.2,2.1,2.2
					c1.4,0,1.9-0.6,1.9-2.1c0-2.1,0-4.2,0-6.3c0-0.8,0.2-1.4,1-1.8c1.1-0.6,2.1-1.2,3.1-1.9c1.2-1,2.3-1.6,4-0.9
					c1.4,0.6,2.1-0.4,1.8-2C478.1,60.6,478,59.7,477.7,58.8z M477.4,69.6c-1.4,0-2.8,0-4.2,0c-0.7,0-1.1,0.2-1.1,1
					c0,1.3-0.1,2.5,0,3.8c0.2,2.8,2.8,5.3,5.4,5.2c2.7-0.1,5.1-2.6,5.2-5.4c0-1.1,0-2.2,0-3.3c0-0.9-0.2-1.3-1.2-1.2
					C480.2,69.6,478.8,69.6,477.4,69.6z"/>
				<path class="st4" d="M456.8,28.5c0.4-0.4,0.8-0.7,0.9-1c0.4-1.4,0.8-2.8,1.2-4.3c0.5,0.2,0.8,0.4,1.3,0.7c0.7-1.5,1.3-3,2.1-4.8
					c0.4,0.6,0.6,1.1,1.1,2c1-1.6,1.9-3.1,2.9-4.6c0.3,1.1,0.6,2.4,0.9,3.6c0.7-0.1,1.3-0.2,1.8-0.3c0.8,1,1.6,2,2.4,3
					c0.3-0.2,0.8-0.4,0.9-0.4c0.9,1,1.8,1.9,2.5,2.9c0.5,0.7,0.4,1.7,0.8,2.5c0.2,0.5,0.6,0.9,0.9,1.4c0.1,0.2,0.2,0.5,0.2,0.7
					c0.1,1.2,0.2,2.3,0.3,3.5c0.2,1.1,0,2.3,1.5,2.8c0.4,0.2,0.9,1.3,0.7,1.9c-0.6,2.4-1,4.9-3.2,6.4c-0.2,0.2-0.4,0.5-0.5,0.8
					c-0.4,2.2-1.5,3.9-3,5.4c-1.5,1.5-1.4,2.1,0.4,3.2c0.7,0.4,1,2.5,0.2,3.3c-2,2-4.1,3.8-6.2,5.6c-0.2,0.2-0.9,0.1-1.1-0.1
					c-2-1.7-4-3.4-5.8-5.2c-1.2-1.3-0.7-2.9,0.8-3.6c0.9-0.4,1-1.5,0.2-2.5c-0.6-0.8-1.6-1.4-2-2.3c-1.2-3.1-3.5-5.5-4.6-8.5
					c-0.2-0.6-0.5-1.2-0.6-1.8c-0.3-1.3,0-2.4,1.4-3c0.4-0.2,0.7-0.7,0.8-1.1C456.4,32.6,456.6,30.5,456.8,28.5z"/>
				<path class="st4" d="M474.5,53.6c2.2,2.5,1.9,5.8,3,8.7c-0.4,0-0.7,0.1-0.8,0c-1.7-1-3-0.3-4.4,0.8c-1.1,0.9-2.4,1.6-3.7,2.3
					c-0.8,0.4-1.1,1-1.1,1.9c0,2.2,0,4.4,0,6.6c0,0.7,0,1.4-0.9,1.4c-1,0-0.9-0.8-0.9-1.4c0-2.6-0.1-5.1,0-7.7
					c0-0.6,0.5-1.2,0.9-1.6c2.1-1.8,4.3-3.5,6.5-5.3c1.5-1.3,1.9-2.9,1.4-4.8C474.5,54.2,474.5,53.9,474.5,53.6z"/>
				<path class="st4" d="M465.1,64.1c-0.2,0.3-0.4,0.8-0.8,1.4c-1.4-0.9-2.9-1.7-4.1-2.8c-1.1-0.9-2.2-1.1-3.4-0.5
					c-0.3,0.1-0.6,0.1-1.2,0.2c1-3,0.8-6.2,2.6-8.9c0.1,0,0.3,0,0.4,0c0,0.4,0,0.8-0.1,1.2c-0.4,1.5-0.1,2.9,1,4
					C461.4,60.6,463.2,62.3,465.1,64.1z"/>
				<path class="st3" d="M477.4,69.6c1.4,0,2.8,0,4.2,0c0.9,0,1.2,0.3,1.2,1.2c-0.1,1.1,0,2.2,0,3.3c-0.1,2.8-2.5,5.3-5.2,5.4
					c-2.6,0.1-5.2-2.4-5.4-5.2c-0.1-1.2,0-2.5,0-3.8c0-0.8,0.4-1,1.1-1C474.6,69.6,476,69.6,477.4,69.6z M473.3,70.8
					c0,1.3-0.1,2.4,0,3.5c0.2,2.2,1.9,3.9,3.8,4c1.9,0.1,3.7-1.1,4.2-3.1c0.3-1.4,0.3-2.9,0.4-4.4C478.8,70.8,476.1,70.8,473.3,70.8
					z"/>
				<path class="st4" d="M473.3,70.8c2.8,0,5.5,0,8.4,0c-0.1,1.5-0.1,3-0.4,4.4c-0.5,2-2.3,3.3-4.2,3.1c-1.9-0.1-3.6-1.8-3.8-4
					C473.2,73.2,473.3,72.1,473.3,70.8z M474.6,71.8c-0.2,2-0.3,3.8,1.5,5c1,0.6,2,0.5,3-0.2c1.2-1,1.6-2.7,1-4.7
					C478.4,71.8,476.5,71.8,474.6,71.8z"/>
				<path class="st3" d="M474.6,71.8c2,0,3.8,0,5.6,0c0.6,2,0.2,3.7-1,4.7c-0.9,0.8-2,0.9-3,0.2C474.3,75.6,474.4,73.8,474.6,71.8z"
					/>
			</g>
		</g>
		<g>
			<g>
				<path class="st4" d="M369.1,58.8c4.7-0.5,8.3,2.7,8.4,7.2c0,2.4,0,4.8,0,7.3c0,0.9,0.1,1.7,1.2,1.7c1.1,0,1.1-0.8,1.1-1.7
					c0-2.6,0-5.1,0-7.7c0-4.7-3.9-8.8-8.6-9.2c-0.3,0-0.6-0.1-0.8-0.1c-1.6,0.2-2.2-0.6-2.2-2c7.7-0.8,13.7,4.4,13.8,12.1
					c0.1,6.8,0,13.5,0,20.3c0,1-0.3,1.4-1.4,1.4c-15.1,0-30.2,0-45.3,0c-1,0-1.4-0.4-1.4-1.4c0-6.9-0.1-13.7,0.1-20.6
					c0.2-7.5,6-12.4,13.9-11.8c-0.1,1.2-0.4,2-2,2c-6.4,0.1-10.2,5.3-9.7,10.3c0.2,2.2,0,4.4,0,6.6c0,0.8-0.1,1.9,1.1,1.8
					c1.2,0,1.1-1,1.1-1.9c0-2.6-0.1-5.1,0-7.7c0.2-4.2,4.2-7.4,8.4-6.6c-0.2,0.9-0.4,1.8-0.6,2.7c-0.4,1.5,0.4,2.4,1.7,1.9
					c1.7-0.8,2.9-0.1,4.1,0.9c0.4,0.4,0.9,0.7,1.4,0.9c2.3,0.8,2.9,2.5,2.6,4.8c-0.2,1.4-0.1,2.8,0,4.2c0,1.6,0.6,2.2,2.1,2.2
					c1.4,0,1.9-0.6,1.9-2.1c0-2.1,0-4.2,0-6.3c0-0.8,0.2-1.4,1-1.8c1.1-0.6,2.1-1.2,3.1-1.9c1.2-1,2.3-1.6,4-0.9
					c1.4,0.6,2.1-0.4,1.8-2C369.5,60.6,369.4,59.7,369.1,58.8z M368.8,69.6c-1.4,0-2.8,0-4.2,0c-0.7,0-1.1,0.2-1.1,1
					c0,1.3-0.1,2.5,0,3.8c0.2,2.8,2.8,5.3,5.4,5.2c2.7-0.1,5.1-2.6,5.2-5.4c0-1.1,0-2.2,0-3.3c0-0.9-0.2-1.3-1.2-1.2
					C371.6,69.6,370.2,69.6,368.8,69.6z"/>
				<path class="st4" d="M348.2,28.5c0.4-0.4,0.8-0.7,0.9-1c0.4-1.4,0.8-2.8,1.2-4.3c0.5,0.2,0.8,0.4,1.3,0.7c0.7-1.5,1.3-3,2.1-4.8
					c0.4,0.6,0.6,1.1,1.1,2c1-1.6,1.9-3.1,2.9-4.6c0.3,1.1,0.6,2.4,0.9,3.6c0.7-0.1,1.3-0.2,1.8-0.3c0.8,1,1.6,2,2.4,3
					c0.3-0.2,0.8-0.4,0.9-0.4c0.9,1,1.8,1.9,2.5,2.9c0.5,0.7,0.4,1.7,0.8,2.5c0.2,0.5,0.6,0.9,0.9,1.4c0.1,0.2,0.2,0.5,0.2,0.7
					c0.1,1.2,0.2,2.3,0.3,3.5c0.2,1.1,0,2.3,1.5,2.8c0.4,0.2,0.9,1.3,0.7,1.9c-0.6,2.4-1,4.9-3.2,6.4c-0.2,0.2-0.4,0.5-0.5,0.8
					c-0.4,2.2-1.5,3.9-3,5.4c-1.5,1.5-1.4,2.1,0.4,3.2c0.7,0.4,1,2.5,0.2,3.3c-2,2-4.1,3.8-6.2,5.6c-0.2,0.2-0.9,0.1-1.1-0.1
					c-2-1.7-4-3.4-5.8-5.2c-1.2-1.3-0.7-2.9,0.8-3.6c0.9-0.4,1-1.5,0.2-2.5c-0.6-0.8-1.6-1.4-2-2.3c-1.2-3.1-3.5-5.5-4.6-8.5
					c-0.2-0.6-0.5-1.2-0.6-1.8c-0.3-1.3,0-2.4,1.4-3c0.4-0.2,0.7-0.7,0.8-1.1C347.8,32.6,348,30.5,348.2,28.5z"/>
				<path class="st4" d="M365.9,53.6c2.2,2.5,1.9,5.8,3,8.7c-0.4,0-0.7,0.1-0.8,0c-1.7-1-3-0.3-4.4,0.8c-1.1,0.9-2.4,1.6-3.7,2.3
					c-0.8,0.4-1.1,1-1.1,1.9c0,2.2,0,4.4,0,6.6c0,0.7,0,1.4-0.9,1.4c-1,0-0.9-0.8-0.9-1.4c0-2.6-0.1-5.1,0-7.7
					c0-0.6,0.5-1.2,0.9-1.6c2.1-1.8,4.3-3.5,6.5-5.3c1.5-1.3,1.9-2.9,1.4-4.8C365.9,54.2,365.9,53.9,365.9,53.6z"/>
				<path class="st4" d="M356.5,64.1c-0.2,0.3-0.4,0.8-0.8,1.4c-1.4-0.9-2.9-1.7-4.1-2.8c-1.1-0.9-2.2-1.1-3.4-0.5
					c-0.3,0.1-0.6,0.1-1.2,0.2c1-3,0.8-6.2,2.6-8.9c0.1,0,0.3,0,0.4,0c0,0.4,0,0.8-0.1,1.2c-0.4,1.5-0.1,2.9,1,4
					C352.8,60.6,354.6,62.3,356.5,64.1z"/>
				<path class="st3" d="M368.8,69.6c1.4,0,2.8,0,4.2,0c0.9,0,1.2,0.3,1.2,1.2c-0.1,1.1,0,2.2,0,3.3c-0.1,2.8-2.5,5.3-5.2,5.4
					c-2.6,0.1-5.2-2.4-5.4-5.2c-0.1-1.2,0-2.5,0-3.8c0-0.8,0.4-1,1.1-1C366,69.6,367.4,69.6,368.8,69.6z M364.7,70.8
					c0,1.3-0.1,2.4,0,3.5c0.2,2.2,1.9,3.9,3.8,4c1.9,0.1,3.7-1.1,4.2-3.1c0.3-1.4,0.3-2.9,0.4-4.4C370.2,70.8,367.5,70.8,364.7,70.8
					z"/>
				<path class="st4" d="M364.7,70.8c2.8,0,5.5,0,8.4,0c-0.1,1.5-0.1,3-0.4,4.4c-0.5,2-2.3,3.3-4.2,3.1c-1.9-0.1-3.6-1.8-3.8-4
					C364.6,73.2,364.7,72.1,364.7,70.8z M366,71.8c-0.2,2-0.3,3.8,1.5,5c1,0.6,2,0.5,3-0.2c1.2-1,1.6-2.7,1-4.7
					C369.8,71.8,367.9,71.8,366,71.8z"/>
				<path class="st3" d="M366,71.8c2,0,3.8,0,5.6,0c0.6,2,0.2,3.7-1,4.7c-0.9,0.8-2,0.9-3,0.2C365.7,75.6,365.8,73.8,366,71.8z"/>
			</g>
		</g>
	</g>
	<g>
		<g>
			<g>
				<path class="st4" d="M260.5,150.8c4.7-0.5,8.3,2.7,8.4,7.2c0,2.4,0,4.8,0,7.3c0,0.9,0.1,1.7,1.2,1.7c1.1,0,1.1-0.8,1.1-1.7
					c0-2.6,0-5.1,0-7.7c0-4.7-3.9-8.8-8.6-9.2c-0.3,0-0.6-0.1-0.8-0.1c-1.6,0.2-2.2-0.6-2.2-2c7.7-0.8,13.7,4.4,13.8,12.1
					c0.1,6.8,0,13.5,0,20.3c0,1-0.3,1.4-1.4,1.4c-15.1,0-30.2,0-45.3,0c-1,0-1.4-0.4-1.4-1.4c0-6.9-0.1-13.7,0.1-20.6
					c0.2-7.5,6-12.4,13.9-11.8c-0.1,1.2-0.4,2-2,2c-6.4,0.1-10.2,5.3-9.7,10.3c0.2,2.2,0,4.4,0,6.6c0,0.8-0.1,1.9,1.1,1.8
					c1.2,0,1.1-1,1.1-1.9c0-2.6-0.1-5.1,0-7.7c0.2-4.2,4.3-7.4,8.4-6.6c-0.2,0.9-0.4,1.8-0.6,2.7c-0.4,1.5,0.4,2.4,1.7,1.9
					c1.7-0.8,2.9-0.1,4.1,0.9c0.4,0.4,0.9,0.7,1.4,0.9c2.3,0.8,2.9,2.5,2.6,4.8c-0.2,1.4-0.1,2.8,0,4.2c0,1.6,0.6,2.2,2.1,2.2
					c1.4,0,1.9-0.6,1.9-2.1c0-2.1,0-4.2,0-6.3c0-0.8,0.2-1.4,1-1.8c1.1-0.6,2.1-1.2,3.1-1.9c1.2-1,2.3-1.6,4-0.9
					c1.4,0.6,2.1-0.4,1.8-2C260.9,152.6,260.8,151.8,260.5,150.8z M260.2,161.7c-1.4,0-2.8,0-4.2,0c-0.7,0-1.1,0.2-1.1,1
					c0,1.3-0.1,2.5,0,3.8c0.2,2.8,2.8,5.3,5.4,5.2c2.7-0.1,5.1-2.6,5.2-5.4c0-1.1,0-2.2,0-3.3c0-0.9-0.3-1.3-1.2-1.2
					C263,161.7,261.6,161.7,260.2,161.7z"/>
				<path class="st4" d="M239.6,120.6c0.4-0.4,0.8-0.7,0.9-1c0.4-1.4,0.8-2.8,1.2-4.3c0.5,0.2,0.8,0.4,1.3,0.7
					c0.7-1.5,1.3-3,2.1-4.8c0.4,0.6,0.6,1.1,1.1,2c1-1.6,1.9-3.1,2.9-4.6c0.3,1.1,0.6,2.4,0.9,3.6c0.7-0.1,1.3-0.2,1.8-0.3
					c0.8,1,1.6,2,2.4,3c0.3-0.2,0.8-0.4,0.9-0.4c0.9,1,1.8,1.9,2.5,2.9c0.5,0.7,0.5,1.7,0.8,2.5c0.2,0.5,0.6,0.9,0.9,1.4
					c0.1,0.2,0.2,0.5,0.2,0.7c0.1,1.2,0.2,2.3,0.3,3.5c0.2,1.1,0,2.3,1.5,2.8c0.4,0.2,0.9,1.3,0.7,1.9c-0.6,2.4-1,4.9-3.2,6.4
					c-0.2,0.2-0.4,0.5-0.5,0.8c-0.4,2.2-1.5,3.9-3,5.4c-1.5,1.5-1.4,2.1,0.4,3.2c0.7,0.4,1,2.5,0.2,3.3c-2,2-4.1,3.8-6.2,5.6
					c-0.2,0.2-0.9,0.1-1.1-0.1c-2-1.7-4-3.4-5.8-5.2c-1.2-1.3-0.7-2.9,0.8-3.6c0.9-0.4,1-1.5,0.2-2.5c-0.6-0.8-1.6-1.4-2-2.3
					c-1.2-3.1-3.5-5.5-4.6-8.5c-0.2-0.6-0.5-1.2-0.6-1.8c-0.3-1.3,0-2.4,1.4-3c0.4-0.2,0.7-0.7,0.8-1.1
					C239.2,124.7,239.4,122.6,239.6,120.6z"/>
				<path class="st4" d="M257.3,145.6c2.2,2.5,1.9,5.8,3,8.7c-0.4,0-0.7,0.1-0.8,0c-1.7-1-3-0.3-4.4,0.8c-1.1,0.9-2.4,1.6-3.7,2.3
					c-0.8,0.4-1.1,1-1.1,1.9c0,2.2,0,4.4,0,6.6c0,0.7,0,1.4-0.9,1.4c-1,0-0.9-0.8-0.9-1.4c0-2.6-0.1-5.1,0-7.7
					c0-0.6,0.5-1.2,0.9-1.6c2.1-1.8,4.3-3.5,6.5-5.3c1.5-1.3,1.9-2.9,1.4-4.8C257.3,146.2,257.3,145.9,257.3,145.6z"/>
				<path class="st4" d="M247.9,156.1c-0.2,0.3-0.4,0.8-0.8,1.4c-1.4-0.9-2.9-1.7-4.1-2.8c-1.1-0.9-2.2-1.1-3.4-0.5
					c-0.3,0.1-0.6,0.1-1.2,0.2c1-3,0.8-6.2,2.6-8.9c0.1,0,0.3,0,0.4,0c0,0.4,0,0.8-0.1,1.2c-0.4,1.5-0.1,2.9,1,4
					C244.2,152.6,246,154.3,247.9,156.1z"/>
				<path class="st3" d="M260.2,161.7c1.4,0,2.8,0,4.2,0c0.9,0,1.2,0.3,1.2,1.2c-0.1,1.1,0,2.2,0,3.3c-0.1,2.8-2.5,5.3-5.2,5.4
					c-2.6,0.1-5.2-2.4-5.4-5.2c-0.1-1.2,0-2.5,0-3.8c0-0.8,0.4-1,1.1-1C257.4,161.7,258.8,161.7,260.2,161.7z M256.1,162.8
					c0,1.3-0.1,2.4,0,3.5c0.2,2.2,1.9,3.9,3.8,4c1.9,0.1,3.7-1.1,4.2-3.1c0.3-1.4,0.3-2.9,0.4-4.4
					C261.6,162.8,258.9,162.8,256.1,162.8z"/>
				<path class="st4" d="M256.1,162.8c2.8,0,5.5,0,8.4,0c-0.1,1.5-0.1,3-0.4,4.4c-0.5,2-2.3,3.3-4.2,3.1c-1.9-0.1-3.6-1.8-3.8-4
					C256,165.2,256.1,164.1,256.1,162.8z M257.4,163.9c-0.2,2-0.3,3.8,1.5,5c1,0.6,2,0.5,3-0.2c1.2-1,1.6-2.7,1-4.7
					C261.2,163.9,259.3,163.9,257.4,163.9z"/>
				<path class="st3" d="M257.4,163.9c2,0,3.8,0,5.6,0c0.6,2,0.2,3.7-1,4.7c-0.9,0.8-2,0.9-3,0.2
					C257.1,167.7,257.2,165.9,257.4,163.9z"/>
			</g>
		</g>
		<g>
			<g>
				<path class="st4" d="M314.8,150.8c4.7-0.5,8.3,2.7,8.4,7.2c0,2.4,0,4.8,0,7.3c0,0.9,0.1,1.7,1.2,1.7c1.1,0,1.1-0.8,1.1-1.7
					c0-2.6,0-5.1,0-7.7c0-4.7-3.9-8.8-8.6-9.2c-0.3,0-0.6-0.1-0.8-0.1c-1.5,0.2-2.2-0.6-2.2-2c7.7-0.8,13.7,4.4,13.8,12.1
					c0.1,6.8,0,13.5,0,20.3c0,1-0.3,1.4-1.4,1.4c-15.1,0-30.2,0-45.3,0c-1,0-1.4-0.4-1.4-1.4c0-6.9-0.1-13.7,0.1-20.6
					c0.2-7.5,6-12.4,13.9-11.8c-0.1,1.2-0.4,2-2,2c-6.4,0.1-10.2,5.3-9.7,10.3c0.2,2.2,0,4.4,0,6.6c0,0.8-0.1,1.9,1.1,1.8
					c1.2,0,1.1-1,1.1-1.9c0-2.6-0.1-5.1,0-7.7c0.2-4.2,4.2-7.4,8.4-6.6c-0.2,0.9-0.4,1.8-0.6,2.7c-0.4,1.5,0.4,2.4,1.7,1.9
					c1.7-0.8,2.9-0.1,4.1,0.9c0.4,0.4,0.9,0.7,1.4,0.9c2.3,0.8,2.9,2.5,2.6,4.8c-0.2,1.4-0.1,2.8,0,4.2c0,1.6,0.6,2.2,2.1,2.2
					c1.4,0,1.9-0.6,1.9-2.1c0-2.1,0-4.2,0-6.3c0-0.8,0.2-1.4,1-1.8c1.1-0.6,2.1-1.2,3.1-1.9c1.2-1,2.3-1.6,4-0.9
					c1.4,0.6,2.1-0.4,1.8-2C315.2,152.6,315.1,151.8,314.8,150.8z M314.5,161.7c-1.4,0-2.8,0-4.2,0c-0.7,0-1.1,0.2-1.1,1
					c0,1.3,0,2.5,0,3.8c0.2,2.8,2.8,5.3,5.4,5.2c2.7-0.1,5.1-2.6,5.2-5.4c0-1.1,0-2.2,0-3.3c0-0.9-0.3-1.3-1.2-1.2
					C317.3,161.7,315.9,161.7,314.5,161.7z"/>
				<path class="st4" d="M293.9,120.6c0.4-0.4,0.8-0.7,0.9-1c0.4-1.4,0.8-2.8,1.2-4.3c0.5,0.2,0.8,0.4,1.3,0.7
					c0.7-1.5,1.3-3,2.1-4.8c0.4,0.6,0.6,1.1,1.1,2c1-1.6,1.9-3.1,2.9-4.6c0.3,1.1,0.6,2.4,0.9,3.6c0.7-0.1,1.3-0.2,1.8-0.3
					c0.8,1,1.6,2,2.4,3c0.3-0.2,0.8-0.4,0.9-0.4c0.9,1,1.8,1.9,2.5,2.9c0.5,0.7,0.4,1.7,0.8,2.5c0.2,0.5,0.6,0.9,0.9,1.4
					c0.1,0.2,0.2,0.5,0.2,0.7c0.1,1.2,0.2,2.3,0.3,3.5c0.2,1.1,0,2.3,1.5,2.8c0.4,0.2,0.9,1.3,0.7,1.9c-0.6,2.4-1,4.9-3.2,6.4
					c-0.2,0.2-0.4,0.5-0.5,0.8c-0.4,2.2-1.5,3.9-3,5.4c-1.5,1.5-1.4,2.1,0.4,3.2c0.7,0.4,1,2.5,0.2,3.3c-2,2-4.1,3.8-6.2,5.6
					c-0.2,0.2-0.9,0.1-1.1-0.1c-2-1.7-4-3.4-5.8-5.2c-1.2-1.3-0.7-2.9,0.8-3.6c0.9-0.4,1-1.5,0.2-2.5c-0.6-0.8-1.6-1.4-2-2.3
					c-1.2-3.1-3.5-5.5-4.6-8.5c-0.2-0.6-0.5-1.2-0.6-1.8c-0.3-1.3,0-2.4,1.4-3c0.4-0.2,0.7-0.7,0.8-1.1
					C293.5,124.7,293.7,122.6,293.9,120.6z"/>
				<path class="st4" d="M311.6,145.6c2.2,2.5,1.9,5.8,3,8.7c-0.4,0-0.7,0.1-0.8,0c-1.7-1-3-0.3-4.4,0.8c-1.1,0.9-2.4,1.6-3.7,2.3
					c-0.8,0.4-1.1,1-1.1,1.9c0,2.2,0,4.4,0,6.6c0,0.7,0,1.4-0.9,1.4c-1,0-0.9-0.8-0.9-1.4c0-2.6-0.1-5.1,0-7.7
					c0-0.6,0.5-1.2,0.9-1.6c2.1-1.8,4.3-3.5,6.5-5.3c1.5-1.3,1.9-2.9,1.4-4.8C311.6,146.2,311.6,145.9,311.6,145.6z"/>
				<path class="st4" d="M302.2,156.1c-0.2,0.3-0.4,0.8-0.8,1.4c-1.4-0.9-2.9-1.7-4.1-2.8c-1.1-0.9-2.2-1.1-3.4-0.5
					c-0.3,0.1-0.6,0.1-1.2,0.2c1-3,0.8-6.2,2.6-8.9c0.1,0,0.3,0,0.4,0c0,0.4,0,0.8-0.1,1.2c-0.4,1.5-0.1,2.9,1,4
					C298.5,152.6,300.3,154.3,302.2,156.1z"/>
				<path class="st3" d="M314.5,161.7c1.4,0,2.8,0,4.2,0c0.9,0,1.2,0.3,1.2,1.2c-0.1,1.1,0,2.2,0,3.3c-0.1,2.8-2.5,5.3-5.2,5.4
					c-2.6,0.1-5.2-2.4-5.4-5.2c-0.1-1.2,0-2.5,0-3.8c0-0.8,0.4-1,1.1-1C311.7,161.7,313.1,161.7,314.5,161.7z M310.4,162.8
					c0,1.3-0.1,2.4,0,3.5c0.2,2.2,1.9,3.9,3.8,4c1.9,0.1,3.7-1.1,4.2-3.1c0.3-1.4,0.3-2.9,0.4-4.4
					C315.9,162.8,313.2,162.8,310.4,162.8z"/>
				<path class="st4" d="M310.4,162.8c2.8,0,5.5,0,8.4,0c-0.1,1.5-0.1,3-0.4,4.4c-0.5,2-2.3,3.3-4.2,3.1c-1.9-0.1-3.6-1.8-3.8-4
					C310.3,165.2,310.4,164.1,310.4,162.8z M311.7,163.9c-0.2,2-0.3,3.8,1.5,5c1,0.6,2,0.5,3-0.2c1.2-1,1.6-2.7,1-4.7
					C315.5,163.9,313.6,163.9,311.7,163.9z"/>
				<path class="st3" d="M311.7,163.9c2,0,3.8,0,5.6,0c0.6,2,0.2,3.7-1,4.7c-0.9,0.8-2,0.9-3,0.2
					C311.4,167.7,311.5,165.9,311.7,163.9z"/>
			</g>
		</g>
		<g>
			<g>
				<path class="st4" d="M423.4,150.8c4.7-0.5,8.3,2.7,8.4,7.2c0,2.4,0,4.8,0,7.3c0,0.9,0.1,1.7,1.2,1.7c1.1,0,1.1-0.8,1.1-1.7
					c0-2.6,0-5.1,0-7.7c0-4.7-3.9-8.8-8.6-9.2c-0.3,0-0.6-0.1-0.8-0.1c-1.6,0.2-2.2-0.6-2.2-2c7.7-0.8,13.7,4.4,13.8,12.1
					c0.1,6.8,0,13.5,0,20.3c0,1-0.3,1.4-1.4,1.4c-15.1,0-30.2,0-45.3,0c-1,0-1.4-0.4-1.4-1.4c0-6.9-0.1-13.7,0.1-20.6
					c0.2-7.5,6-12.4,13.9-11.8c-0.1,1.2-0.4,2-2,2c-6.4,0.1-10.2,5.3-9.7,10.3c0.2,2.2,0,4.4,0,6.6c0,0.8-0.1,1.9,1.1,1.8
					c1.2,0,1.1-1,1.1-1.9c0-2.6-0.1-5.1,0-7.7c0.2-4.2,4.3-7.4,8.4-6.6c-0.2,0.9-0.4,1.8-0.6,2.7c-0.4,1.5,0.4,2.4,1.7,1.9
					c1.7-0.8,2.9-0.1,4.1,0.9c0.4,0.4,0.9,0.7,1.4,0.9c2.3,0.8,2.9,2.5,2.6,4.8c-0.2,1.4-0.1,2.8,0,4.2c0,1.6,0.6,2.2,2.1,2.2
					c1.4,0,1.9-0.6,1.9-2.1c0-2.1,0-4.2,0-6.3c0-0.8,0.2-1.4,1-1.8c1.1-0.6,2.1-1.2,3.1-1.9c1.2-1,2.3-1.6,4-0.9
					c1.4,0.6,2.1-0.4,1.8-2C423.8,152.6,423.7,151.8,423.4,150.8z M423.1,161.7c-1.4,0-2.8,0-4.2,0c-0.7,0-1.1,0.2-1.1,1
					c0,1.3-0.1,2.5,0,3.8c0.2,2.8,2.8,5.3,5.4,5.2c2.7-0.1,5.1-2.6,5.2-5.4c0-1.1,0-2.2,0-3.3c0-0.9-0.2-1.3-1.2-1.2
					C425.9,161.7,424.5,161.7,423.1,161.7z"/>
				<path class="st4" d="M402.5,120.6c0.4-0.4,0.8-0.7,0.9-1c0.4-1.4,0.8-2.8,1.2-4.3c0.5,0.2,0.8,0.4,1.3,0.7
					c0.7-1.5,1.3-3,2.1-4.8c0.4,0.6,0.6,1.1,1.1,2c1-1.6,1.9-3.1,2.9-4.6c0.3,1.1,0.6,2.4,0.9,3.6c0.7-0.1,1.3-0.2,1.8-0.3
					c0.8,1,1.6,2,2.4,3c0.3-0.2,0.8-0.4,0.9-0.4c0.9,1,1.8,1.9,2.5,2.9c0.5,0.7,0.4,1.7,0.8,2.5c0.2,0.5,0.6,0.9,0.9,1.4
					c0.1,0.2,0.2,0.5,0.2,0.7c0.1,1.2,0.2,2.3,0.3,3.5c0.2,1.1,0,2.3,1.5,2.8c0.4,0.2,0.9,1.3,0.7,1.9c-0.6,2.4-1,4.9-3.2,6.4
					c-0.2,0.2-0.4,0.5-0.5,0.8c-0.4,2.2-1.5,3.9-3,5.4c-1.5,1.5-1.4,2.1,0.4,3.2c0.7,0.4,1,2.5,0.2,3.3c-2,2-4.1,3.8-6.2,5.6
					c-0.2,0.2-0.9,0.1-1.1-0.1c-2-1.7-4-3.4-5.8-5.2c-1.2-1.3-0.7-2.9,0.8-3.6c0.9-0.4,1-1.5,0.2-2.5c-0.6-0.8-1.6-1.4-2-2.3
					c-1.2-3.1-3.5-5.5-4.6-8.5c-0.2-0.6-0.5-1.2-0.6-1.8c-0.3-1.3,0-2.4,1.4-3c0.4-0.2,0.7-0.7,0.8-1.1
					C402.1,124.7,402.3,122.6,402.5,120.6z"/>
				<path class="st4" d="M420.2,145.6c2.2,2.5,1.9,5.8,3,8.7c-0.4,0-0.7,0.1-0.8,0c-1.7-1-3-0.3-4.4,0.8c-1.1,0.9-2.4,1.6-3.7,2.3
					c-0.8,0.4-1.1,1-1.1,1.9c0,2.2,0,4.4,0,6.6c0,0.7,0,1.4-0.9,1.4c-1,0-0.9-0.8-0.9-1.4c0-2.6-0.1-5.1,0-7.7
					c0-0.6,0.5-1.2,0.9-1.6c2.1-1.8,4.3-3.5,6.5-5.3c1.5-1.3,1.9-2.9,1.4-4.8C420.2,146.2,420.2,145.9,420.2,145.6z"/>
				<path class="st4" d="M410.8,156.1c-0.2,0.3-0.4,0.8-0.8,1.4c-1.4-0.9-2.9-1.7-4.1-2.8c-1.1-0.9-2.2-1.1-3.4-0.5
					c-0.3,0.1-0.6,0.1-1.2,0.2c1-3,0.8-6.2,2.6-8.9c0.1,0,0.3,0,0.4,0c0,0.4,0,0.8-0.1,1.2c-0.4,1.5-0.1,2.9,1,4
					C407.1,152.6,408.9,154.3,410.8,156.1z"/>
				<path class="st3" d="M423.1,161.7c1.4,0,2.8,0,4.2,0c0.9,0,1.2,0.3,1.2,1.2c-0.1,1.1,0,2.2,0,3.3c-0.1,2.8-2.5,5.3-5.2,5.4
					c-2.6,0.1-5.2-2.4-5.4-5.2c-0.1-1.2,0-2.5,0-3.8c0-0.8,0.4-1,1.1-1C420.3,161.7,421.7,161.7,423.1,161.7z M419,162.8
					c0,1.3-0.1,2.4,0,3.5c0.2,2.2,1.9,3.9,3.8,4c1.9,0.1,3.7-1.1,4.2-3.1c0.3-1.4,0.3-2.9,0.4-4.4
					C424.5,162.8,421.8,162.8,419,162.8z"/>
				<path class="st4" d="M419,162.8c2.8,0,5.5,0,8.4,0c-0.1,1.5-0.1,3-0.4,4.4c-0.5,2-2.3,3.3-4.2,3.1c-1.9-0.1-3.6-1.8-3.8-4
					C418.9,165.2,419,164.1,419,162.8z M420.3,163.9c-0.2,2-0.3,3.8,1.5,5c1,0.6,2,0.5,3-0.2c1.2-1,1.6-2.7,1-4.7
					C424.1,163.9,422.2,163.9,420.3,163.9z"/>
				<path class="st3" d="M420.3,163.9c2,0,3.8,0,5.6,0c0.6,2,0.2,3.7-1,4.7c-0.9,0.8-2,0.9-3,0.2C420,167.7,420.1,165.9,420.3,163.9
					z"/>
			</g>
		</g>
		<g>
			<g>
				<path class="st4" d="M477.7,150.8c4.7-0.5,8.3,2.7,8.4,7.2c0,2.4,0,4.8,0,7.3c0,0.9,0.1,1.7,1.2,1.7c1.1,0,1.1-0.8,1.1-1.7
					c0-2.6,0-5.1,0-7.7c0-4.7-3.9-8.8-8.6-9.2c-0.3,0-0.6-0.1-0.8-0.1c-1.6,0.2-2.2-0.6-2.2-2c7.7-0.8,13.7,4.4,13.8,12.1
					c0.1,6.8,0,13.5,0,20.3c0,1-0.3,1.4-1.4,1.4c-15.1,0-30.2,0-45.3,0c-1,0-1.4-0.4-1.4-1.4c0-6.9-0.1-13.7,0.1-20.6
					c0.2-7.5,6-12.4,13.8-11.8c-0.1,1.2-0.4,2-2,2c-6.4,0.1-10.2,5.3-9.7,10.3c0.2,2.2,0,4.4,0,6.6c0,0.8-0.1,1.9,1.1,1.8
					c1.2,0,1.1-1,1.1-1.9c0-2.6-0.1-5.1,0-7.7c0.2-4.2,4.2-7.4,8.4-6.6c-0.2,0.9-0.4,1.8-0.6,2.7c-0.4,1.5,0.4,2.4,1.7,1.9
					c1.7-0.8,2.9-0.1,4.1,0.9c0.4,0.4,0.9,0.7,1.4,0.9c2.3,0.8,2.9,2.5,2.6,4.8c-0.2,1.4-0.1,2.8,0,4.2c0,1.6,0.6,2.2,2.1,2.2
					c1.4,0,1.9-0.6,1.9-2.1c0-2.1,0-4.2,0-6.3c0-0.8,0.2-1.4,1-1.8c1.1-0.6,2.1-1.2,3.1-1.9c1.2-1,2.3-1.6,4-0.9
					c1.4,0.6,2.1-0.4,1.8-2C478.1,152.6,478,151.8,477.7,150.8z M477.4,161.7c-1.4,0-2.8,0-4.2,0c-0.7,0-1.1,0.2-1.1,1
					c0,1.3-0.1,2.5,0,3.8c0.2,2.8,2.8,5.3,5.4,5.2c2.7-0.1,5.1-2.6,5.2-5.4c0-1.1,0-2.2,0-3.3c0-0.9-0.2-1.3-1.2-1.2
					C480.2,161.7,478.8,161.7,477.4,161.7z"/>
				<path class="st4" d="M456.8,120.6c0.4-0.4,0.8-0.7,0.9-1c0.4-1.4,0.8-2.8,1.2-4.3c0.5,0.2,0.8,0.4,1.3,0.7
					c0.7-1.5,1.3-3,2.1-4.8c0.4,0.6,0.6,1.1,1.1,2c1-1.6,1.9-3.1,2.9-4.6c0.3,1.1,0.6,2.4,0.9,3.6c0.7-0.1,1.3-0.2,1.8-0.3
					c0.8,1,1.6,2,2.4,3c0.3-0.2,0.8-0.4,0.9-0.4c0.9,1,1.8,1.9,2.5,2.9c0.5,0.7,0.4,1.7,0.8,2.5c0.2,0.5,0.6,0.9,0.9,1.4
					c0.1,0.2,0.2,0.5,0.2,0.7c0.1,1.2,0.2,2.3,0.3,3.5c0.2,1.1,0,2.3,1.5,2.8c0.4,0.2,0.9,1.3,0.7,1.9c-0.6,2.4-1,4.9-3.2,6.4
					c-0.2,0.2-0.4,0.5-0.5,0.8c-0.4,2.2-1.5,3.9-3,5.4c-1.5,1.5-1.4,2.1,0.4,3.2c0.7,0.4,1,2.5,0.2,3.3c-2,2-4.1,3.8-6.2,5.6
					c-0.2,0.2-0.9,0.1-1.1-0.1c-2-1.7-4-3.4-5.8-5.2c-1.2-1.3-0.7-2.9,0.8-3.6c0.9-0.4,1-1.5,0.2-2.5c-0.6-0.8-1.6-1.4-2-2.3
					c-1.2-3.1-3.5-5.5-4.6-8.5c-0.2-0.6-0.5-1.2-0.6-1.8c-0.3-1.3,0-2.4,1.4-3c0.4-0.2,0.7-0.7,0.8-1.1
					C456.4,124.7,456.6,122.6,456.8,120.6z"/>
				<path class="st4" d="M474.5,145.6c2.2,2.5,1.9,5.8,3,8.7c-0.4,0-0.7,0.1-0.8,0c-1.7-1-3-0.3-4.4,0.8c-1.1,0.9-2.4,1.6-3.7,2.3
					c-0.8,0.4-1.1,1-1.1,1.9c0,2.2,0,4.4,0,6.6c0,0.7,0,1.4-0.9,1.4c-1,0-0.9-0.8-0.9-1.4c0-2.6-0.1-5.1,0-7.7
					c0-0.6,0.5-1.2,0.9-1.6c2.1-1.8,4.3-3.5,6.5-5.3c1.5-1.3,1.9-2.9,1.4-4.8C474.5,146.2,474.5,145.9,474.5,145.6z"/>
				<path class="st4" d="M465.1,156.1c-0.2,0.3-0.4,0.8-0.8,1.4c-1.4-0.9-2.9-1.7-4.1-2.8c-1.1-0.9-2.2-1.1-3.4-0.5
					c-0.3,0.1-0.6,0.1-1.2,0.2c1-3,0.8-6.2,2.6-8.9c0.1,0,0.3,0,0.4,0c0,0.4,0,0.8-0.1,1.2c-0.4,1.5-0.1,2.9,1,4
					C461.4,152.6,463.2,154.3,465.1,156.1z"/>
				<path class="st3" d="M477.4,161.7c1.4,0,2.8,0,4.2,0c0.9,0,1.2,0.3,1.2,1.2c-0.1,1.1,0,2.2,0,3.3c-0.1,2.8-2.5,5.3-5.2,5.4
					c-2.6,0.1-5.2-2.4-5.4-5.2c-0.1-1.2,0-2.5,0-3.8c0-0.8,0.4-1,1.1-1C474.6,161.7,476,161.7,477.4,161.7z M473.3,162.8
					c0,1.3-0.1,2.4,0,3.5c0.2,2.2,1.9,3.9,3.8,4c1.9,0.1,3.7-1.1,4.2-3.1c0.3-1.4,0.3-2.9,0.4-4.4
					C478.8,162.8,476.1,162.8,473.3,162.8z"/>
				<path class="st4" d="M473.3,162.8c2.8,0,5.5,0,8.4,0c-0.1,1.5-0.1,3-0.4,4.4c-0.5,2-2.3,3.3-4.2,3.1c-1.9-0.1-3.6-1.8-3.8-4
					C473.2,165.2,473.3,164.1,473.3,162.8z M474.6,163.9c-0.2,2-0.3,3.8,1.5,5c1,0.6,2,0.5,3-0.2c1.2-1,1.6-2.7,1-4.7
					C478.4,163.9,476.5,163.9,474.6,163.9z"/>
				<path class="st3" d="M474.6,163.9c2,0,3.8,0,5.6,0c0.6,2,0.2,3.7-1,4.7c-0.9,0.8-2,0.9-3,0.2
					C474.3,167.7,474.4,165.9,474.6,163.9z"/>
			</g>
		</g>
		<g>
			<g>
				<path class="st4" d="M369.1,150.8c4.7-0.5,8.3,2.7,8.4,7.2c0,2.4,0,4.8,0,7.3c0,0.9,0.1,1.7,1.2,1.7c1.1,0,1.1-0.8,1.1-1.7
					c0-2.6,0-5.1,0-7.7c0-4.7-3.9-8.8-8.6-9.2c-0.3,0-0.6-0.1-0.8-0.1c-1.6,0.2-2.2-0.6-2.2-2c7.7-0.8,13.7,4.4,13.8,12.1
					c0.1,6.8,0,13.5,0,20.3c0,1-0.3,1.4-1.4,1.4c-15.1,0-30.2,0-45.3,0c-1,0-1.4-0.4-1.4-1.4c0-6.9-0.1-13.7,0.1-20.6
					c0.2-7.5,6-12.4,13.9-11.8c-0.1,1.2-0.4,2-2,2c-6.4,0.1-10.2,5.3-9.7,10.3c0.2,2.2,0,4.4,0,6.6c0,0.8-0.1,1.9,1.1,1.8
					c1.2,0,1.1-1,1.1-1.9c0-2.6-0.1-5.1,0-7.7c0.2-4.2,4.2-7.4,8.4-6.6c-0.2,0.9-0.4,1.8-0.6,2.7c-0.4,1.5,0.4,2.4,1.7,1.9
					c1.7-0.8,2.9-0.1,4.1,0.9c0.4,0.4,0.9,0.7,1.4,0.9c2.3,0.8,2.9,2.5,2.6,4.8c-0.2,1.4-0.1,2.8,0,4.2c0,1.6,0.6,2.2,2.1,2.2
					c1.4,0,1.9-0.6,1.9-2.1c0-2.1,0-4.2,0-6.3c0-0.8,0.2-1.4,1-1.8c1.1-0.6,2.1-1.2,3.1-1.9c1.2-1,2.3-1.6,4-0.9
					c1.4,0.6,2.1-0.4,1.8-2C369.5,152.6,369.4,151.8,369.1,150.8z M368.8,161.7c-1.4,0-2.8,0-4.2,0c-0.7,0-1.1,0.2-1.1,1
					c0,1.3-0.1,2.5,0,3.8c0.2,2.8,2.8,5.3,5.4,5.2c2.7-0.1,5.1-2.6,5.2-5.4c0-1.1,0-2.2,0-3.3c0-0.9-0.2-1.3-1.2-1.2
					C371.6,161.7,370.2,161.7,368.8,161.7z"/>
				<path class="st4" d="M348.2,120.6c0.4-0.4,0.8-0.7,0.9-1c0.4-1.4,0.8-2.8,1.2-4.3c0.5,0.2,0.8,0.4,1.3,0.7
					c0.7-1.5,1.3-3,2.1-4.8c0.4,0.6,0.6,1.1,1.1,2c1-1.6,1.9-3.1,2.9-4.6c0.3,1.1,0.6,2.4,0.9,3.6c0.7-0.1,1.3-0.2,1.8-0.3
					c0.8,1,1.6,2,2.4,3c0.3-0.2,0.8-0.4,0.9-0.4c0.9,1,1.8,1.9,2.5,2.9c0.5,0.7,0.4,1.7,0.8,2.5c0.2,0.5,0.6,0.9,0.9,1.4
					c0.1,0.2,0.2,0.5,0.2,0.7c0.1,1.2,0.2,2.3,0.3,3.5c0.2,1.1,0,2.3,1.5,2.8c0.4,0.2,0.9,1.3,0.7,1.9c-0.6,2.4-1,4.9-3.2,6.4
					c-0.2,0.2-0.4,0.5-0.5,0.8c-0.4,2.2-1.5,3.9-3,5.4c-1.5,1.5-1.4,2.1,0.4,3.2c0.7,0.4,1,2.5,0.2,3.3c-2,2-4.1,3.8-6.2,5.6
					c-0.2,0.2-0.9,0.1-1.1-0.1c-2-1.7-4-3.4-5.8-5.2c-1.2-1.3-0.7-2.9,0.8-3.6c0.9-0.4,1-1.5,0.2-2.5c-0.6-0.8-1.6-1.4-2-2.3
					c-1.2-3.1-3.5-5.5-4.6-8.5c-0.2-0.6-0.5-1.2-0.6-1.8c-0.3-1.3,0-2.4,1.4-3c0.4-0.2,0.7-0.7,0.8-1.1
					C347.8,124.7,348,122.6,348.2,120.6z"/>
				<path class="st4" d="M365.9,145.6c2.2,2.5,1.9,5.8,3,8.7c-0.4,0-0.7,0.1-0.8,0c-1.7-1-3-0.3-4.4,0.8c-1.1,0.9-2.4,1.6-3.7,2.3
					c-0.8,0.4-1.1,1-1.1,1.9c0,2.2,0,4.4,0,6.6c0,0.7,0,1.4-0.9,1.4c-1,0-0.9-0.8-0.9-1.4c0-2.6-0.1-5.1,0-7.7
					c0-0.6,0.5-1.2,0.9-1.6c2.1-1.8,4.3-3.5,6.5-5.3c1.5-1.3,1.9-2.9,1.4-4.8C365.9,146.2,365.9,145.9,365.9,145.6z"/>
				<path class="st4" d="M356.5,156.1c-0.2,0.3-0.4,0.8-0.8,1.4c-1.4-0.9-2.9-1.7-4.1-2.8c-1.1-0.9-2.2-1.1-3.4-0.5
					c-0.3,0.1-0.6,0.1-1.2,0.2c1-3,0.8-6.2,2.6-8.9c0.1,0,0.3,0,0.4,0c0,0.4,0,0.8-0.1,1.2c-0.4,1.5-0.1,2.9,1,4
					C352.8,152.6,354.6,154.3,356.5,156.1z"/>
				<path class="st3" d="M368.8,161.7c1.4,0,2.8,0,4.2,0c0.9,0,1.2,0.3,1.2,1.2c-0.1,1.1,0,2.2,0,3.3c-0.1,2.8-2.5,5.3-5.2,5.4
					c-2.6,0.1-5.2-2.4-5.4-5.2c-0.1-1.2,0-2.5,0-3.8c0-0.8,0.4-1,1.1-1C366,161.7,367.4,161.7,368.8,161.7z M364.7,162.8
					c0,1.3-0.1,2.4,0,3.5c0.2,2.2,1.9,3.9,3.8,4c1.9,0.1,3.7-1.1,4.2-3.1c0.3-1.4,0.3-2.9,0.4-4.4
					C370.2,162.8,367.5,162.8,364.7,162.8z"/>
				<path class="st4" d="M364.7,162.8c2.8,0,5.5,0,8.4,0c-0.1,1.5-0.1,3-0.4,4.4c-0.5,2-2.3,3.3-4.2,3.1c-1.9-0.1-3.6-1.8-3.8-4
					C364.6,165.2,364.7,164.1,364.7,162.8z M366,163.9c-0.2,2-0.3,3.8,1.5,5c1,0.6,2,0.5,3-0.2c1.2-1,1.6-2.7,1-4.7
					C369.8,163.9,367.9,163.9,366,163.9z"/>
				<path class="st3" d="M366,163.9c2,0,3.8,0,5.6,0c0.6,2,0.2,3.7-1,4.7c-0.9,0.8-2,0.9-3,0.2C365.7,167.7,365.8,165.9,366,163.9z"
					/>
			</g>
		</g>
		<g>
			<g>
				<path class="st4" d="M43.3,150.8c4.7-0.5,8.3,2.7,8.4,7.2c0,2.4,0,4.8,0,7.3c0,0.9,0.1,1.7,1.2,1.7c1.1,0,1.1-0.8,1.1-1.7
					c0-2.6,0-5.1,0-7.7c0-4.7-3.9-8.8-8.6-9.2c-0.3,0-0.6-0.1-0.8-0.1c-1.6,0.2-2.2-0.6-2.2-2c7.7-0.8,13.7,4.4,13.8,12.1
					c0.1,6.8,0,13.5,0,20.3c0,1-0.3,1.4-1.4,1.4c-15.1,0-30.2,0-45.3,0c-1,0-1.4-0.4-1.4-1.4c0-6.9-0.1-13.7,0.1-20.6
					c0.2-7.5,6-12.4,13.9-11.8c-0.1,1.2-0.4,2-2,2c-6.4,0.1-10.2,5.3-9.7,10.3c0.2,2.2,0,4.4,0,6.6c0,0.8-0.1,1.9,1.1,1.8
					c1.2,0,1.1-1,1.1-1.9c0-2.6-0.1-5.1,0-7.7c0.2-4.2,4.3-7.4,8.4-6.6c-0.2,0.9-0.4,1.8-0.6,2.7c-0.4,1.5,0.4,2.4,1.7,1.9
					c1.7-0.8,2.9-0.1,4.1,0.9c0.4,0.4,0.9,0.7,1.4,0.9c2.3,0.8,2.9,2.5,2.6,4.8c-0.2,1.4-0.1,2.8,0,4.2c0,1.6,0.6,2.2,2.1,2.2
					c1.4,0,1.9-0.6,1.9-2.1c0-2.1,0-4.2,0-6.3c0-0.8,0.2-1.4,1-1.8c1.1-0.6,2.1-1.2,3.1-1.9c1.2-1,2.3-1.6,4-0.9
					c1.4,0.6,2.1-0.4,1.8-2C43.7,152.6,43.5,151.8,43.3,150.8z M43,161.7c-1.4,0-2.8,0-4.2,0c-0.7,0-1.1,0.2-1.1,1
					c0,1.3-0.1,2.5,0,3.8c0.2,2.8,2.8,5.3,5.4,5.2c2.7-0.1,5.1-2.6,5.2-5.4c0-1.1,0-2.2,0-3.3c0-0.9-0.3-1.3-1.2-1.2
					C45.8,161.7,44.4,161.7,43,161.7z"/>
				<path class="st4" d="M22.3,120.6c0.4-0.4,0.8-0.7,0.9-1c0.4-1.4,0.8-2.8,1.2-4.3c0.5,0.2,0.8,0.4,1.3,0.7c0.7-1.5,1.3-3,2.1-4.8
					c0.4,0.6,0.6,1.1,1.1,2c1-1.6,1.9-3.1,2.9-4.6c0.3,1.1,0.6,2.4,0.9,3.6c0.7-0.1,1.3-0.2,1.8-0.3c0.8,1,1.6,2,2.4,3
					c0.3-0.2,0.8-0.4,0.9-0.4c0.9,1,1.8,1.9,2.5,2.9c0.5,0.7,0.5,1.7,0.8,2.5c0.2,0.5,0.6,0.9,0.9,1.4c0.1,0.2,0.2,0.5,0.2,0.7
					c0.1,1.2,0.2,2.3,0.3,3.5c0.2,1.1,0,2.3,1.5,2.8c0.4,0.2,0.9,1.3,0.7,1.9c-0.6,2.4-1,4.9-3.2,6.4c-0.2,0.2-0.4,0.5-0.5,0.8
					c-0.4,2.2-1.5,3.9-3,5.4c-1.5,1.5-1.4,2.1,0.4,3.2c0.7,0.4,1,2.5,0.2,3.3c-2,2-4.1,3.8-6.2,5.6c-0.2,0.2-0.9,0.1-1.1-0.1
					c-2-1.7-4-3.4-5.8-5.2c-1.2-1.3-0.7-2.9,0.8-3.6c0.9-0.4,1-1.5,0.2-2.5c-0.6-0.8-1.6-1.4-2-2.3c-1.2-3.1-3.5-5.5-4.6-8.5
					c-0.2-0.6-0.5-1.2-0.6-1.8c-0.3-1.3,0-2.4,1.4-3c0.4-0.2,0.7-0.7,0.8-1.1C21.9,124.7,22.1,122.6,22.3,120.6z"/>
				<path class="st4" d="M40.1,145.6c2.2,2.5,1.9,5.8,3,8.7c-0.4,0-0.7,0.1-0.8,0c-1.7-1-3-0.3-4.4,0.8c-1.1,0.9-2.4,1.6-3.7,2.3
					c-0.8,0.4-1.1,1-1.1,1.9c0,2.2,0,4.4,0,6.6c0,0.7,0,1.4-0.9,1.4c-1,0-0.9-0.8-0.9-1.4c0-2.6-0.1-5.1,0-7.7
					c0-0.6,0.5-1.2,0.9-1.6c2.1-1.8,4.3-3.5,6.5-5.3c1.5-1.3,1.9-2.9,1.4-4.8C40,146.2,40.1,145.9,40.1,145.6z"/>
				<path class="st4" d="M30.7,156.1c-0.2,0.3-0.4,0.8-0.8,1.4c-1.4-0.9-2.9-1.7-4.1-2.8c-1.1-0.9-2.2-1.1-3.4-0.5
					c-0.3,0.1-0.6,0.1-1.2,0.2c1-3,0.8-6.2,2.6-8.9c0.1,0,0.3,0,0.4,0c0,0.4,0,0.8-0.1,1.2c-0.4,1.5-0.1,2.9,1,4
					C26.9,152.6,28.8,154.3,30.7,156.1z"/>
				<path class="st3" d="M43,161.7c1.4,0,2.8,0,4.2,0c0.9,0,1.2,0.3,1.2,1.2c-0.1,1.1,0,2.2,0,3.3c-0.1,2.8-2.5,5.3-5.2,5.4
					c-2.6,0.1-5.2-2.4-5.4-5.2c-0.1-1.2,0-2.5,0-3.8c0-0.8,0.4-1,1.1-1C40.2,161.7,41.6,161.7,43,161.7z M38.9,162.8
					c0,1.3-0.1,2.4,0,3.5c0.2,2.2,1.9,3.9,3.8,4c1.9,0.1,3.7-1.1,4.2-3.1c0.3-1.4,0.3-2.9,0.4-4.4C44.3,162.8,41.7,162.8,38.9,162.8
					z"/>
				<path class="st4" d="M38.9,162.8c2.8,0,5.5,0,8.4,0c-0.1,1.5-0.1,3-0.4,4.4c-0.5,2-2.3,3.3-4.2,3.1c-1.9-0.1-3.6-1.8-3.8-4
					C38.8,165.2,38.9,164.1,38.9,162.8z M40.2,163.9c-0.2,2-0.3,3.8,1.5,5c1,0.6,2,0.5,3-0.2c1.2-1,1.6-2.7,1-4.7
					C43.9,163.9,42.1,163.9,40.2,163.9z"/>
				<path class="st3" d="M40.2,163.9c2,0,3.8,0,5.6,0c0.6,2,0.2,3.7-1,4.7c-0.9,0.8-2,0.9-3,0.2C39.8,167.7,40,165.9,40.2,163.9z"/>
			</g>
		</g>
		<g>
			<g>
				<path class="st4" d="M97.6,150.8c4.7-0.5,8.3,2.7,8.4,7.2c0,2.4,0,4.8,0,7.3c0,0.9,0.1,1.7,1.2,1.7c1.1,0,1.1-0.8,1.1-1.7
					c0-2.6,0-5.1,0-7.7c0-4.7-3.9-8.8-8.6-9.2c-0.3,0-0.6-0.1-0.8-0.1c-1.6,0.2-2.2-0.6-2.2-2c7.7-0.8,13.7,4.4,13.8,12.1
					c0.1,6.8,0,13.5,0,20.3c0,1-0.3,1.4-1.4,1.4c-15.1,0-30.2,0-45.3,0c-1,0-1.4-0.4-1.4-1.4c0-6.9-0.1-13.7,0.1-20.6
					c0.2-7.5,6-12.4,13.9-11.8c-0.1,1.2-0.4,2-2,2c-6.4,0.1-10.2,5.3-9.7,10.3c0.2,2.2,0,4.4,0,6.6c0,0.8-0.1,1.9,1.1,1.8
					c1.2,0,1.1-1,1.1-1.9c0-2.6-0.1-5.1,0-7.7c0.2-4.2,4.2-7.4,8.4-6.6c-0.2,0.9-0.4,1.8-0.6,2.7c-0.4,1.5,0.4,2.4,1.7,1.9
					c1.7-0.8,2.9-0.1,4.1,0.9c0.4,0.4,0.9,0.7,1.4,0.9c2.3,0.8,2.9,2.5,2.6,4.8c-0.2,1.4-0.1,2.8,0,4.2c0,1.6,0.6,2.2,2.1,2.2
					c1.4,0,1.9-0.6,1.9-2.1c0-2.1,0-4.2,0-6.3c0-0.8,0.2-1.4,1-1.8c1.1-0.6,2.1-1.2,3.1-1.9c1.2-1,2.3-1.6,4-0.9
					c1.4,0.6,2.1-0.4,1.8-2C98,152.6,97.8,151.8,97.6,150.8z M97.3,161.7c-1.4,0-2.8,0-4.2,0c-0.7,0-1.1,0.2-1.1,1
					c0,1.3,0,2.5,0,3.8c0.2,2.8,2.8,5.3,5.4,5.2c2.7-0.1,5.1-2.6,5.2-5.4c0-1.1,0-2.2,0-3.3c0-0.9-0.3-1.3-1.2-1.2
					C100.1,161.7,98.7,161.7,97.3,161.7z"/>
				<path class="st4" d="M76.6,120.6c0.4-0.4,0.8-0.7,0.9-1c0.4-1.4,0.8-2.8,1.2-4.3c0.5,0.2,0.8,0.4,1.3,0.7c0.7-1.5,1.3-3,2.1-4.8
					c0.4,0.6,0.6,1.1,1.1,2c1-1.6,1.9-3.1,2.9-4.6c0.3,1.1,0.6,2.4,0.9,3.6c0.7-0.1,1.3-0.2,1.8-0.3c0.8,1,1.6,2,2.4,3
					c0.3-0.2,0.8-0.4,0.9-0.4c0.9,1,1.8,1.9,2.5,2.9c0.5,0.7,0.4,1.7,0.8,2.5c0.2,0.5,0.6,0.9,0.9,1.4c0.1,0.2,0.2,0.5,0.2,0.7
					c0.1,1.2,0.2,2.3,0.3,3.5c0.2,1.1,0,2.3,1.5,2.8c0.4,0.2,0.9,1.3,0.7,1.9c-0.6,2.4-1,4.9-3.2,6.4c-0.2,0.2-0.4,0.5-0.5,0.8
					c-0.4,2.2-1.5,3.9-3,5.4c-1.5,1.5-1.4,2.1,0.4,3.2c0.7,0.4,1,2.5,0.2,3.3c-2,2-4.1,3.8-6.2,5.6c-0.2,0.2-0.9,0.1-1.1-0.1
					c-2-1.7-4-3.4-5.8-5.2c-1.2-1.3-0.7-2.9,0.8-3.6c0.9-0.4,1-1.5,0.2-2.5c-0.6-0.8-1.6-1.4-2-2.3c-1.2-3.1-3.5-5.5-4.6-8.5
					c-0.2-0.6-0.5-1.2-0.6-1.8c-0.3-1.3,0-2.4,1.4-3c0.4-0.2,0.7-0.7,0.8-1.1C76.2,124.7,76.4,122.6,76.6,120.6z"/>
				<path class="st4" d="M94.4,145.6c2.2,2.5,1.9,5.8,3,8.7c-0.4,0-0.7,0.1-0.8,0c-1.7-1-3-0.3-4.4,0.8c-1.1,0.9-2.4,1.6-3.7,2.3
					c-0.8,0.4-1.1,1-1.1,1.9c0,2.2,0,4.4,0,6.6c0,0.7,0,1.4-0.9,1.4c-1,0-0.9-0.8-0.9-1.4c0-2.6-0.1-5.1,0-7.7
					c0-0.6,0.5-1.2,0.9-1.6c2.1-1.8,4.3-3.5,6.5-5.3c1.5-1.3,1.9-2.9,1.4-4.8C94.3,146.2,94.4,145.9,94.4,145.6z"/>
				<path class="st4" d="M85,156.1c-0.2,0.3-0.4,0.8-0.8,1.4c-1.4-0.9-2.9-1.7-4.1-2.8c-1.1-0.9-2.2-1.1-3.4-0.5
					c-0.3,0.1-0.6,0.1-1.2,0.2c1-3,0.8-6.2,2.6-8.9c0.1,0,0.3,0,0.4,0c0,0.4,0,0.8-0.1,1.2c-0.4,1.5-0.1,2.9,1,4
					C81.2,152.6,83.1,154.3,85,156.1z"/>
				<path class="st3" d="M97.3,161.7c1.4,0,2.8,0,4.2,0c0.9,0,1.2,0.3,1.2,1.2c-0.1,1.1,0,2.2,0,3.3c-0.1,2.8-2.5,5.3-5.2,5.4
					c-2.6,0.1-5.2-2.4-5.4-5.2c-0.1-1.2,0-2.5,0-3.8c0-0.8,0.4-1,1.1-1C94.5,161.7,95.9,161.7,97.3,161.7z M93.2,162.8
					c0,1.3-0.1,2.4,0,3.5c0.2,2.2,1.9,3.9,3.8,4c1.9,0.1,3.7-1.1,4.2-3.1c0.3-1.4,0.3-2.9,0.4-4.4C98.6,162.8,96,162.8,93.2,162.8z"
					/>
				<path class="st4" d="M93.2,162.8c2.8,0,5.5,0,8.4,0c-0.1,1.5-0.1,3-0.4,4.4c-0.5,2-2.3,3.3-4.2,3.1c-1.9-0.1-3.6-1.8-3.8-4
					C93.1,165.2,93.2,164.1,93.2,162.8z M94.5,163.9c-0.2,2-0.3,3.8,1.5,5c1,0.6,2,0.5,3-0.2c1.2-1,1.6-2.7,1-4.7
					C98.2,163.9,96.4,163.9,94.5,163.9z"/>
				<path class="st3" d="M94.5,163.9c2,0,3.8,0,5.6,0c0.6,2,0.2,3.7-1,4.7c-0.9,0.8-2,0.9-3,0.2C94.1,167.7,94.3,165.9,94.5,163.9z"
					/>
			</g>
		</g>
		<g>
			<g>
				<path class="st4" d="M206.2,150.8c4.7-0.5,8.3,2.7,8.4,7.2c0,2.4,0,4.8,0,7.3c0,0.9,0.1,1.7,1.2,1.7c1.1,0,1.1-0.8,1.1-1.7
					c0-2.6,0-5.1,0-7.7c0-4.7-3.9-8.8-8.6-9.2c-0.3,0-0.6-0.1-0.8-0.1c-1.6,0.2-2.2-0.6-2.2-2c7.7-0.8,13.7,4.4,13.8,12.1
					c0.1,6.8,0,13.5,0,20.3c0,1-0.3,1.4-1.4,1.4c-15.1,0-30.2,0-45.3,0c-1,0-1.4-0.4-1.4-1.4c0-6.9-0.1-13.7,0.1-20.6
					c0.2-7.5,6-12.4,13.9-11.8c-0.1,1.2-0.4,2-2,2c-6.4,0.1-10.2,5.3-9.7,10.3c0.2,2.2,0,4.4,0,6.6c0,0.8-0.1,1.9,1.1,1.8
					c1.2,0,1.1-1,1.1-1.9c0-2.6-0.1-5.1,0-7.7c0.2-4.2,4.3-7.4,8.4-6.6c-0.2,0.9-0.4,1.8-0.6,2.7c-0.4,1.5,0.4,2.4,1.7,1.9
					c1.7-0.8,2.9-0.1,4.1,0.9c0.4,0.4,0.9,0.7,1.4,0.9c2.3,0.8,2.9,2.5,2.6,4.8c-0.2,1.4-0.1,2.8,0,4.2c0,1.6,0.6,2.2,2.1,2.2
					c1.4,0,1.9-0.6,1.9-2.1c0-2.1,0-4.2,0-6.3c0-0.8,0.2-1.4,1-1.8c1.1-0.6,2.1-1.2,3.1-1.9c1.2-1,2.3-1.6,4-0.9
					c1.4,0.6,2.1-0.4,1.8-2C206.6,152.6,206.4,151.8,206.2,150.8z M205.9,161.7c-1.4,0-2.8,0-4.2,0c-0.7,0-1.1,0.2-1.1,1
					c0,1.3-0.1,2.5,0,3.8c0.2,2.8,2.8,5.3,5.4,5.2c2.7-0.1,5.1-2.6,5.2-5.4c0-1.1,0-2.2,0-3.3c0-0.9-0.2-1.3-1.2-1.2
					C208.7,161.7,207.3,161.7,205.9,161.7z"/>
				<path class="st4" d="M185.2,120.6c0.4-0.4,0.8-0.7,0.9-1c0.4-1.4,0.8-2.8,1.2-4.3c0.5,0.2,0.8,0.4,1.3,0.7
					c0.7-1.5,1.3-3,2.1-4.8c0.4,0.6,0.6,1.1,1.1,2c1-1.6,1.9-3.1,2.9-4.6c0.3,1.1,0.6,2.4,0.9,3.6c0.7-0.1,1.3-0.2,1.8-0.3
					c0.8,1,1.6,2,2.4,3c0.3-0.2,0.8-0.4,0.9-0.4c0.9,1,1.8,1.9,2.5,2.9c0.5,0.7,0.4,1.7,0.8,2.5c0.2,0.5,0.6,0.9,0.9,1.4
					c0.1,0.2,0.2,0.5,0.2,0.7c0.1,1.2,0.2,2.3,0.3,3.5c0.2,1.1,0,2.3,1.5,2.8c0.4,0.2,0.9,1.3,0.7,1.9c-0.6,2.4-1,4.9-3.2,6.4
					c-0.2,0.2-0.4,0.5-0.5,0.8c-0.4,2.2-1.5,3.9-3,5.4c-1.5,1.5-1.4,2.1,0.4,3.2c0.7,0.4,1,2.5,0.2,3.3c-2,2-4.1,3.8-6.2,5.6
					c-0.2,0.2-0.9,0.1-1.1-0.1c-2-1.7-4-3.4-5.8-5.2c-1.2-1.3-0.7-2.9,0.8-3.6c0.9-0.4,1-1.5,0.2-2.5c-0.6-0.8-1.6-1.4-2-2.3
					c-1.2-3.1-3.5-5.5-4.6-8.5c-0.2-0.6-0.5-1.2-0.6-1.8c-0.3-1.3,0-2.4,1.4-3c0.4-0.2,0.7-0.7,0.8-1.1
					C184.8,124.7,185,122.6,185.2,120.6z"/>
				<path class="st4" d="M203,145.6c2.2,2.5,1.9,5.8,3,8.7c-0.4,0-0.7,0.1-0.8,0c-1.7-1-3-0.3-4.4,0.8c-1.1,0.9-2.4,1.6-3.7,2.3
					c-0.8,0.4-1.1,1-1.1,1.9c0,2.2,0,4.4,0,6.6c0,0.7,0,1.4-0.9,1.4c-1,0-0.9-0.8-0.9-1.4c0-2.6-0.1-5.1,0-7.7
					c0-0.6,0.5-1.2,0.9-1.6c2.1-1.8,4.3-3.5,6.5-5.3c1.5-1.3,1.9-2.9,1.4-4.8C202.9,146.2,203,145.9,203,145.6z"/>
				<path class="st4" d="M193.6,156.1c-0.2,0.3-0.4,0.8-0.8,1.4c-1.4-0.9-2.9-1.7-4.1-2.8c-1.1-0.9-2.2-1.1-3.4-0.5
					c-0.3,0.1-0.6,0.1-1.2,0.2c1-3,0.8-6.2,2.6-8.9c0.1,0,0.3,0,0.4,0c0,0.4,0,0.8-0.1,1.2c-0.4,1.5-0.1,2.9,1,4
					C189.8,152.6,191.7,154.3,193.6,156.1z"/>
				<path class="st3" d="M205.9,161.7c1.4,0,2.8,0,4.2,0c0.9,0,1.2,0.3,1.2,1.2c-0.1,1.1,0,2.2,0,3.3c-0.1,2.8-2.5,5.3-5.2,5.4
					c-2.6,0.1-5.2-2.4-5.4-5.2c-0.1-1.2,0-2.5,0-3.8c0-0.8,0.4-1,1.1-1C203.1,161.7,204.5,161.7,205.9,161.7z M201.8,162.8
					c0,1.3-0.1,2.4,0,3.5c0.2,2.2,1.9,3.9,3.8,4c1.9,0.1,3.7-1.1,4.2-3.1c0.3-1.4,0.3-2.9,0.4-4.4
					C207.2,162.8,204.6,162.8,201.8,162.8z"/>
				<path class="st4" d="M201.8,162.8c2.8,0,5.5,0,8.4,0c-0.1,1.5-0.1,3-0.4,4.4c-0.5,2-2.3,3.3-4.2,3.1c-1.9-0.1-3.6-1.8-3.8-4
					C201.7,165.2,201.8,164.1,201.8,162.8z M203.1,163.9c-0.2,2-0.3,3.8,1.5,5c1,0.6,2,0.5,3-0.2c1.2-1,1.6-2.7,1-4.7
					C206.8,163.9,205,163.9,203.1,163.9z"/>
				<path class="st3" d="M203.1,163.9c2,0,3.8,0,5.6,0c0.6,2,0.2,3.7-1,4.7c-0.9,0.8-2,0.9-3,0.2
					C202.7,167.7,202.9,165.9,203.1,163.9z"/>
			</g>
		</g>
		<g>
			<g>
				<path class="st4" d="M260.5,150.8c4.7-0.5,8.3,2.7,8.4,7.2c0,2.4,0,4.8,0,7.3c0,0.9,0.1,1.7,1.2,1.7c1.1,0,1.1-0.8,1.1-1.7
					c0-2.6,0-5.1,0-7.7c0-4.7-3.9-8.8-8.6-9.2c-0.3,0-0.6-0.1-0.8-0.1c-1.6,0.2-2.2-0.6-2.2-2c7.7-0.8,13.7,4.4,13.8,12.1
					c0.1,6.8,0,13.5,0,20.3c0,1-0.3,1.4-1.4,1.4c-15.1,0-30.2,0-45.3,0c-1,0-1.4-0.4-1.4-1.4c0-6.9-0.1-13.7,0.1-20.6
					c0.2-7.5,6-12.4,13.8-11.8c-0.1,1.2-0.4,2-2,2c-6.4,0.1-10.2,5.3-9.7,10.3c0.2,2.2,0,4.4,0,6.6c0,0.8-0.1,1.9,1.1,1.8
					c1.2,0,1.1-1,1.1-1.9c0-2.6-0.1-5.1,0-7.7c0.2-4.2,4.2-7.4,8.4-6.6c-0.2,0.9-0.4,1.8-0.6,2.7c-0.4,1.5,0.4,2.4,1.7,1.9
					c1.7-0.8,2.9-0.1,4.1,0.9c0.4,0.4,0.9,0.7,1.4,0.9c2.3,0.8,2.9,2.5,2.6,4.8c-0.2,1.4-0.1,2.8,0,4.2c0,1.6,0.6,2.2,2.1,2.2
					c1.4,0,1.9-0.6,1.9-2.1c0-2.1,0-4.2,0-6.3c0-0.8,0.2-1.4,1-1.8c1.1-0.6,2.1-1.2,3.1-1.9c1.2-1,2.3-1.6,4-0.9
					c1.4,0.6,2.1-0.4,1.8-2C260.9,152.6,260.7,151.8,260.5,150.8z M260.2,161.7c-1.4,0-2.8,0-4.2,0c-0.7,0-1.1,0.2-1.1,1
					c0,1.3-0.1,2.5,0,3.8c0.2,2.8,2.8,5.3,5.4,5.2c2.7-0.1,5.1-2.6,5.2-5.4c0-1.1,0-2.2,0-3.3c0-0.9-0.2-1.3-1.2-1.2
					C263,161.7,261.6,161.7,260.2,161.7z"/>
				<path class="st4" d="M239.5,120.6c0.4-0.4,0.8-0.7,0.9-1c0.4-1.4,0.8-2.8,1.2-4.3c0.5,0.2,0.8,0.4,1.3,0.7
					c0.7-1.5,1.3-3,2.1-4.8c0.4,0.6,0.6,1.1,1.1,2c1-1.6,1.9-3.1,2.9-4.6c0.3,1.1,0.6,2.4,0.9,3.6c0.7-0.1,1.3-0.2,1.8-0.3
					c0.8,1,1.6,2,2.4,3c0.3-0.2,0.8-0.4,0.9-0.4c0.9,1,1.8,1.9,2.5,2.9c0.5,0.7,0.4,1.7,0.8,2.5c0.2,0.5,0.6,0.9,0.9,1.4
					c0.1,0.2,0.2,0.5,0.2,0.7c0.1,1.2,0.2,2.3,0.3,3.5c0.2,1.1,0,2.3,1.5,2.8c0.4,0.2,0.9,1.3,0.7,1.9c-0.6,2.4-1,4.9-3.2,6.4
					c-0.2,0.2-0.4,0.5-0.5,0.8c-0.4,2.2-1.5,3.9-3,5.4c-1.5,1.5-1.4,2.1,0.4,3.2c0.7,0.4,1,2.5,0.2,3.3c-2,2-4.1,3.8-6.2,5.6
					c-0.2,0.2-0.9,0.1-1.1-0.1c-2-1.7-4-3.4-5.8-5.2c-1.2-1.3-0.7-2.9,0.8-3.6c0.9-0.4,1-1.5,0.2-2.5c-0.6-0.8-1.6-1.4-2-2.3
					c-1.2-3.1-3.5-5.5-4.6-8.5c-0.2-0.6-0.5-1.2-0.6-1.8c-0.3-1.3,0-2.4,1.4-3c0.4-0.2,0.7-0.7,0.8-1.1
					C239.1,124.7,239.3,122.6,239.5,120.6z"/>
				<path class="st4" d="M257.3,145.6c2.2,2.5,1.9,5.8,3,8.7c-0.4,0-0.7,0.1-0.8,0c-1.7-1-3-0.3-4.4,0.8c-1.1,0.9-2.4,1.6-3.7,2.3
					c-0.8,0.4-1.1,1-1.1,1.9c0,2.2,0,4.4,0,6.6c0,0.7,0,1.4-0.9,1.4c-1,0-0.9-0.8-0.9-1.4c0-2.6-0.1-5.1,0-7.7
					c0-0.6,0.5-1.2,0.9-1.6c2.1-1.8,4.3-3.5,6.5-5.3c1.5-1.3,1.9-2.9,1.4-4.8C257.2,146.2,257.3,145.9,257.3,145.6z"/>
				<path class="st4" d="M247.9,156.1c-0.2,0.3-0.4,0.8-0.8,1.4c-1.4-0.9-2.9-1.7-4.1-2.8c-1.1-0.9-2.2-1.1-3.4-0.5
					c-0.3,0.1-0.6,0.1-1.2,0.2c1-3,0.8-6.2,2.6-8.9c0.1,0,0.3,0,0.4,0c0,0.4,0,0.8-0.1,1.2c-0.4,1.5-0.1,2.9,1,4
					C244.1,152.6,246,154.3,247.9,156.1z"/>
				<path class="st3" d="M260.2,161.7c1.4,0,2.8,0,4.2,0c0.9,0,1.2,0.3,1.2,1.2c-0.1,1.1,0,2.2,0,3.3c-0.1,2.8-2.5,5.3-5.2,5.4
					c-2.6,0.1-5.2-2.4-5.4-5.2c-0.1-1.2,0-2.5,0-3.8c0-0.8,0.4-1,1.1-1C257.4,161.7,258.8,161.7,260.2,161.7z M256.1,162.8
					c0,1.3-0.1,2.4,0,3.5c0.2,2.2,1.9,3.9,3.8,4c1.9,0.1,3.7-1.1,4.2-3.1c0.3-1.4,0.3-2.9,0.4-4.4
					C261.5,162.8,258.9,162.8,256.1,162.8z"/>
				<path class="st4" d="M256.1,162.8c2.8,0,5.5,0,8.4,0c-0.1,1.5-0.1,3-0.4,4.4c-0.5,2-2.3,3.3-4.2,3.1c-1.9-0.1-3.6-1.8-3.8-4
					C256,165.2,256.1,164.1,256.1,162.8z M257.4,163.9c-0.2,2-0.3,3.8,1.5,5c1,0.6,2,0.5,3-0.2c1.2-1,1.6-2.7,1-4.7
					C261.1,163.9,259.3,163.9,257.4,163.9z"/>
				<path class="st3" d="M257.4,163.9c2,0,3.8,0,5.6,0c0.6,2,0.2,3.7-1,4.7c-0.9,0.8-2,0.9-3,0.2C257,167.7,257.2,165.9,257.4,163.9
					z"/>
			</g>
		</g>
		<g>
			<g>
				<path class="st4" d="M151.9,150.8c4.7-0.5,8.3,2.7,8.4,7.2c0,2.4,0,4.8,0,7.3c0,0.9,0.1,1.7,1.2,1.7c1.1,0,1.1-0.8,1.1-1.7
					c0-2.6,0-5.1,0-7.7c0-4.7-3.9-8.8-8.6-9.2c-0.3,0-0.6-0.1-0.8-0.1c-1.6,0.2-2.2-0.6-2.2-2c7.7-0.8,13.7,4.4,13.8,12.1
					c0.1,6.8,0,13.5,0,20.3c0,1-0.3,1.4-1.4,1.4c-15.1,0-30.2,0-45.3,0c-1,0-1.4-0.4-1.4-1.4c0-6.9-0.1-13.7,0.1-20.6
					c0.2-7.5,6-12.4,13.9-11.8c-0.1,1.2-0.4,2-2,2c-6.4,0.1-10.2,5.3-9.7,10.3c0.2,2.2,0,4.4,0,6.6c0,0.8-0.1,1.9,1.1,1.8
					c1.2,0,1.1-1,1.1-1.9c0-2.6-0.1-5.1,0-7.7c0.2-4.2,4.2-7.4,8.4-6.6c-0.2,0.9-0.4,1.8-0.6,2.7c-0.4,1.5,0.4,2.4,1.7,1.9
					c1.7-0.8,2.9-0.1,4.1,0.9c0.4,0.4,0.9,0.7,1.4,0.9c2.3,0.8,2.9,2.5,2.6,4.8c-0.2,1.4-0.1,2.8,0,4.2c0,1.6,0.6,2.2,2.1,2.2
					c1.4,0,1.9-0.6,1.9-2.1c0-2.1,0-4.2,0-6.3c0-0.8,0.2-1.4,1-1.8c1.1-0.6,2.1-1.2,3.1-1.9c1.2-1,2.3-1.6,4-0.9
					c1.4,0.6,2.1-0.4,1.8-2C152.3,152.6,152.1,151.8,151.9,150.8z M151.6,161.7c-1.4,0-2.8,0-4.2,0c-0.7,0-1.1,0.2-1.1,1
					c0,1.3-0.1,2.5,0,3.8c0.2,2.8,2.8,5.3,5.4,5.2c2.7-0.1,5.1-2.6,5.2-5.4c0-1.1,0-2.2,0-3.3c0-0.9-0.2-1.3-1.2-1.2
					C154.4,161.7,153,161.7,151.6,161.7z"/>
				<path class="st4" d="M130.9,120.6c0.4-0.4,0.8-0.7,0.9-1c0.4-1.4,0.8-2.8,1.2-4.3c0.5,0.2,0.8,0.4,1.3,0.7
					c0.7-1.5,1.3-3,2.1-4.8c0.4,0.6,0.6,1.1,1.1,2c1-1.6,1.9-3.1,2.9-4.6c0.3,1.1,0.6,2.4,0.9,3.6c0.7-0.1,1.3-0.2,1.8-0.3
					c0.8,1,1.6,2,2.4,3c0.3-0.2,0.8-0.4,0.9-0.4c0.9,1,1.8,1.9,2.5,2.9c0.5,0.7,0.4,1.7,0.8,2.5c0.2,0.5,0.6,0.9,0.9,1.4
					c0.1,0.2,0.2,0.5,0.2,0.7c0.1,1.2,0.2,2.3,0.3,3.5c0.2,1.1,0,2.3,1.5,2.8c0.4,0.2,0.9,1.3,0.7,1.9c-0.6,2.4-1,4.9-3.2,6.4
					c-0.2,0.2-0.4,0.5-0.5,0.8c-0.4,2.2-1.5,3.9-3,5.4c-1.5,1.5-1.4,2.1,0.4,3.2c0.7,0.4,1,2.5,0.2,3.3c-2,2-4.1,3.8-6.2,5.6
					c-0.2,0.2-0.9,0.1-1.1-0.1c-2-1.7-4-3.4-5.8-5.2c-1.2-1.3-0.7-2.9,0.8-3.6c0.9-0.4,1-1.5,0.2-2.5c-0.6-0.8-1.6-1.4-2-2.3
					c-1.2-3.1-3.5-5.5-4.6-8.5c-0.2-0.6-0.5-1.2-0.6-1.8c-0.3-1.3,0-2.4,1.4-3c0.4-0.2,0.7-0.7,0.8-1.1
					C130.6,124.7,130.7,122.6,130.9,120.6z"/>
				<path class="st4" d="M148.7,145.6c2.2,2.5,1.9,5.8,3,8.7c-0.4,0-0.7,0.1-0.8,0c-1.7-1-3-0.3-4.4,0.8c-1.1,0.9-2.4,1.6-3.7,2.3
					c-0.8,0.4-1.1,1-1.1,1.9c0,2.2,0,4.4,0,6.6c0,0.7,0,1.4-0.9,1.4c-1,0-0.9-0.8-0.9-1.4c0-2.6-0.1-5.1,0-7.7
					c0-0.6,0.5-1.2,0.9-1.6c2.1-1.8,4.3-3.5,6.5-5.3c1.5-1.3,1.9-2.9,1.4-4.8C148.6,146.2,148.7,145.9,148.7,145.6z"/>
				<path class="st4" d="M139.3,156.1c-0.2,0.3-0.4,0.8-0.8,1.4c-1.4-0.9-2.9-1.7-4.1-2.8c-1.1-0.9-2.2-1.1-3.4-0.5
					c-0.3,0.1-0.6,0.1-1.2,0.2c1-3,0.8-6.2,2.6-8.9c0.1,0,0.3,0,0.4,0c0,0.4,0,0.8-0.1,1.2c-0.4,1.5-0.1,2.9,1,4
					C135.5,152.6,137.4,154.3,139.3,156.1z"/>
				<path class="st3" d="M151.6,161.7c1.4,0,2.8,0,4.2,0c0.9,0,1.2,0.3,1.2,1.2c-0.1,1.1,0,2.2,0,3.3c-0.1,2.8-2.5,5.3-5.2,5.4
					c-2.6,0.1-5.2-2.4-5.4-5.2c-0.1-1.2,0-2.5,0-3.8c0-0.8,0.4-1,1.1-1C148.8,161.7,150.2,161.7,151.6,161.7z M147.5,162.8
					c0,1.3-0.1,2.4,0,3.5c0.2,2.2,1.9,3.9,3.8,4c1.9,0.1,3.7-1.1,4.2-3.1c0.3-1.4,0.3-2.9,0.4-4.4
					C152.9,162.8,150.3,162.8,147.5,162.8z"/>
				<path class="st4" d="M147.5,162.8c2.8,0,5.5,0,8.4,0c-0.1,1.5-0.1,3-0.4,4.4c-0.5,2-2.3,3.3-4.2,3.1c-1.9-0.1-3.6-1.8-3.8-4
					C147.4,165.2,147.5,164.1,147.5,162.8z M148.8,163.9c-0.2,2-0.3,3.8,1.5,5c1,0.6,2,0.5,3-0.2c1.2-1,1.6-2.7,1-4.7
					C152.5,163.9,150.7,163.9,148.8,163.9z"/>
				<path class="st3" d="M148.8,163.9c2,0,3.8,0,5.6,0c0.6,2,0.2,3.7-1,4.7c-0.9,0.8-2,0.9-3,0.2
					C148.4,167.7,148.6,165.9,148.8,163.9z"/>
			</g>
		</g>
	</g>
	<g>
		<g>
			<g>
				<path class="st4" d="M260.5,241.2c4.7-0.5,8.3,2.7,8.4,7.2c0,2.4,0,4.9,0,7.3c0,0.8,0.1,1.7,1.2,1.7c1.1,0,1.1-0.8,1.1-1.7
					c0-2.6,0-5.1,0-7.7c0-4.7-3.9-8.8-8.6-9.2c-0.3,0-0.6-0.1-0.8,0c-1.6,0.2-2.2-0.6-2.2-2.1c7.7-0.8,13.7,4.4,13.8,12.1
					c0.1,6.8,0,13.5,0,20.3c0,1-0.3,1.4-1.4,1.4c-15.1,0-30.2,0-45.3,0c-1,0-1.4-0.4-1.4-1.4c0-6.9-0.1-13.7,0.1-20.6
					c0.2-7.5,6-12.4,13.9-11.8c-0.1,1.2-0.4,2-2,2c-6.4,0.1-10.2,5.3-9.7,10.3c0.2,2.2,0,4.4,0,6.6c0,0.8-0.1,1.8,1.1,1.8
					c1.2,0,1.1-1,1.1-1.9c0-2.6-0.1-5.1,0-7.7c0.2-4.2,4.3-7.4,8.4-6.6c-0.2,0.9-0.4,1.8-0.6,2.7c-0.4,1.4,0.4,2.4,1.7,1.8
					c1.7-0.8,2.9-0.1,4.1,0.9c0.4,0.4,0.9,0.7,1.4,0.9c2.3,0.8,2.9,2.5,2.6,4.8c-0.2,1.4-0.1,2.8,0,4.2c0,1.6,0.6,2.2,2.1,2.2
					c1.4,0,1.9-0.6,1.9-2.1c0-2.1,0-4.2,0-6.3c0-0.8,0.2-1.4,1-1.8c1.1-0.6,2.1-1.2,3.1-1.9c1.2-1,2.3-1.6,4-0.9
					c1.4,0.6,2.1-0.4,1.8-2C260.9,243,260.8,242.1,260.5,241.2z M260.2,252c-1.4,0-2.8,0-4.2,0c-0.7,0-1.1,0.2-1.1,1
					c0,1.3-0.1,2.5,0,3.8c0.2,2.8,2.8,5.3,5.4,5.2c2.7-0.1,5.1-2.6,5.2-5.4c0-1.1,0-2.2,0-3.3c0-0.9-0.3-1.3-1.2-1.2
					C263,252.1,261.6,252,260.2,252z"/>
				<path class="st4" d="M239.6,211c0.4-0.4,0.8-0.7,0.9-1.1c0.4-1.4,0.8-2.8,1.2-4.3c0.5,0.3,0.8,0.4,1.3,0.7
					c0.7-1.5,1.3-3,2.1-4.8c0.4,0.6,0.6,1.1,1.1,2c1-1.7,1.9-3.1,2.9-4.6c0.3,1.1,0.6,2.4,0.9,3.6c0.7-0.1,1.3-0.2,1.8-0.3
					c0.8,1,1.6,2,2.4,3c0.3-0.2,0.8-0.3,0.9-0.4c0.9,1,1.8,1.9,2.5,2.9c0.5,0.7,0.5,1.7,0.8,2.5c0.2,0.5,0.6,0.9,0.9,1.4
					c0.1,0.2,0.2,0.5,0.2,0.7c0.1,1.2,0.2,2.3,0.3,3.5c0.2,1.1,0,2.3,1.5,2.8c0.4,0.2,0.9,1.3,0.7,1.9c-0.6,2.4-1,4.8-3.2,6.4
					c-0.2,0.2-0.4,0.5-0.5,0.8c-0.4,2.2-1.5,3.9-3,5.4c-1.5,1.5-1.4,2.1,0.4,3.2c0.7,0.4,1,2.5,0.2,3.3c-2,2-4.1,3.8-6.2,5.6
					c-0.2,0.2-0.9,0.1-1.1-0.1c-2-1.7-4-3.4-5.8-5.2c-1.2-1.3-0.7-2.9,0.8-3.6c0.9-0.4,1-1.5,0.2-2.5c-0.6-0.8-1.6-1.4-2-2.3
					c-1.2-3.1-3.5-5.5-4.6-8.5c-0.2-0.6-0.5-1.2-0.6-1.8c-0.3-1.3,0-2.4,1.4-3c0.4-0.2,0.7-0.7,0.8-1.1
					C239.2,215,239.4,213,239.6,211z"/>
				<path class="st4" d="M257.3,236c2.2,2.5,1.9,5.8,3,8.7c-0.4,0-0.7,0.1-0.8,0c-1.7-1-3-0.3-4.4,0.8c-1.1,0.9-2.4,1.6-3.7,2.3
					c-0.8,0.4-1.1,1-1.1,1.9c0,2.2,0,4.4,0,6.6c0,0.7,0,1.4-0.9,1.4c-1,0-0.9-0.8-0.9-1.4c0-2.6-0.1-5.1,0-7.7
					c0-0.6,0.5-1.2,0.9-1.6c2.1-1.8,4.3-3.5,6.5-5.3c1.5-1.3,1.9-2.9,1.4-4.8C257.3,236.6,257.3,236.3,257.3,236z"/>
				<path class="st4" d="M247.9,246.5c-0.2,0.3-0.4,0.8-0.8,1.4c-1.4-0.9-2.9-1.7-4.1-2.8c-1.1-0.9-2.2-1.1-3.4-0.5
					c-0.3,0.1-0.6,0.1-1.2,0.2c1-3,0.8-6.2,2.6-8.9c0.1,0,0.3,0,0.4,0c0,0.4,0,0.8-0.1,1.2c-0.4,1.5-0.1,2.9,1,4
					C244.2,243,246,244.7,247.9,246.5z"/>
				<path class="st3" d="M260.2,252c1.4,0,2.8,0,4.2,0c0.9,0,1.2,0.3,1.2,1.2c-0.1,1.1,0,2.2,0,3.3c-0.1,2.8-2.5,5.3-5.2,5.4
					c-2.6,0.1-5.2-2.4-5.4-5.2c-0.1-1.3,0-2.5,0-3.8c0-0.8,0.4-1,1.1-1C257.4,252,258.8,252,260.2,252z M256.1,253.2
					c0,1.3-0.1,2.4,0,3.5c0.2,2.2,1.9,3.9,3.8,4c1.9,0.1,3.7-1.1,4.2-3.1c0.3-1.4,0.3-2.9,0.4-4.4
					C261.6,253.2,258.9,253.2,256.1,253.2z"/>
				<path class="st4" d="M256.1,253.2c2.8,0,5.5,0,8.4,0c-0.1,1.5-0.1,3-0.4,4.4c-0.5,2-2.3,3.3-4.2,3.1c-1.9-0.1-3.6-1.8-3.8-4
					C256,255.6,256.1,254.5,256.1,253.2z M257.4,254.2c-0.2,2-0.3,3.8,1.5,5c1,0.6,2,0.5,3-0.2c1.2-1,1.6-2.8,1-4.7
					C261.2,254.2,259.3,254.2,257.4,254.2z"/>
				<path class="st3" d="M257.4,254.2c2,0,3.8,0,5.6,0c0.6,2,0.2,3.7-1,4.7c-0.9,0.8-2,0.9-3,0.2
					C257.1,258.1,257.2,256.2,257.4,254.2z"/>
			</g>
		</g>
		<g>
			<g>
				<path class="st4" d="M314.8,241.2c4.7-0.5,8.3,2.7,8.4,7.2c0,2.4,0,4.9,0,7.3c0,0.8,0.1,1.7,1.2,1.7c1.1,0,1.1-0.8,1.1-1.7
					c0-2.6,0-5.1,0-7.7c0-4.7-3.9-8.8-8.6-9.2c-0.3,0-0.6-0.1-0.8,0c-1.5,0.2-2.2-0.6-2.2-2.1c7.7-0.8,13.7,4.4,13.8,12.1
					c0.1,6.8,0,13.5,0,20.3c0,1-0.3,1.4-1.4,1.4c-15.1,0-30.2,0-45.3,0c-1,0-1.4-0.4-1.4-1.4c0-6.9-0.1-13.7,0.1-20.6
					c0.2-7.5,6-12.4,13.9-11.8c-0.1,1.2-0.4,2-2,2c-6.4,0.1-10.2,5.3-9.7,10.3c0.2,2.2,0,4.4,0,6.6c0,0.8-0.1,1.8,1.1,1.8
					c1.2,0,1.1-1,1.1-1.9c0-2.6-0.1-5.1,0-7.7c0.2-4.2,4.2-7.4,8.4-6.6c-0.2,0.9-0.4,1.8-0.6,2.7c-0.4,1.4,0.4,2.4,1.7,1.8
					c1.7-0.8,2.9-0.1,4.1,0.9c0.4,0.4,0.9,0.7,1.4,0.9c2.3,0.8,2.9,2.5,2.6,4.8c-0.2,1.4-0.1,2.8,0,4.2c0,1.6,0.6,2.2,2.1,2.2
					c1.4,0,1.9-0.6,1.9-2.1c0-2.1,0-4.2,0-6.3c0-0.8,0.2-1.4,1-1.8c1.1-0.6,2.1-1.2,3.1-1.9c1.2-1,2.3-1.6,4-0.9
					c1.4,0.6,2.1-0.4,1.8-2C315.2,243,315.1,242.1,314.8,241.2z M314.5,252c-1.4,0-2.8,0-4.2,0c-0.7,0-1.1,0.2-1.1,1
					c0,1.3,0,2.5,0,3.8c0.2,2.8,2.8,5.3,5.4,5.2c2.7-0.1,5.1-2.6,5.2-5.4c0-1.1,0-2.2,0-3.3c0-0.9-0.3-1.3-1.2-1.2
					C317.3,252.1,315.9,252,314.5,252z"/>
				<path class="st4" d="M293.9,211c0.4-0.4,0.8-0.7,0.9-1.1c0.4-1.4,0.8-2.8,1.2-4.3c0.5,0.3,0.8,0.4,1.3,0.7
					c0.7-1.5,1.3-3,2.1-4.8c0.4,0.6,0.6,1.1,1.1,2c1-1.7,1.9-3.1,2.9-4.6c0.3,1.1,0.6,2.4,0.9,3.6c0.7-0.1,1.3-0.2,1.8-0.3
					c0.8,1,1.6,2,2.4,3c0.3-0.2,0.8-0.3,0.9-0.4c0.9,1,1.8,1.9,2.5,2.9c0.5,0.7,0.4,1.7,0.8,2.5c0.2,0.5,0.6,0.9,0.9,1.4
					c0.1,0.2,0.2,0.5,0.2,0.7c0.1,1.2,0.2,2.3,0.3,3.5c0.2,1.1,0,2.3,1.5,2.8c0.4,0.2,0.9,1.3,0.7,1.9c-0.6,2.4-1,4.8-3.2,6.4
					c-0.2,0.2-0.4,0.5-0.5,0.8c-0.4,2.2-1.5,3.9-3,5.4c-1.5,1.5-1.4,2.1,0.4,3.2c0.7,0.4,1,2.5,0.2,3.3c-2,2-4.1,3.8-6.2,5.6
					c-0.2,0.2-0.9,0.1-1.1-0.1c-2-1.7-4-3.4-5.8-5.2c-1.2-1.3-0.7-2.9,0.8-3.6c0.9-0.4,1-1.5,0.2-2.5c-0.6-0.8-1.6-1.4-2-2.3
					c-1.2-3.1-3.5-5.5-4.6-8.5c-0.2-0.6-0.5-1.2-0.6-1.8c-0.3-1.3,0-2.4,1.4-3c0.4-0.2,0.7-0.7,0.8-1.1
					C293.5,215,293.7,213,293.9,211z"/>
				<path class="st4" d="M311.6,236c2.2,2.5,1.9,5.8,3,8.7c-0.4,0-0.7,0.1-0.8,0c-1.7-1-3-0.3-4.4,0.8c-1.1,0.9-2.4,1.6-3.7,2.3
					c-0.8,0.4-1.1,1-1.1,1.9c0,2.2,0,4.4,0,6.6c0,0.7,0,1.4-0.9,1.4c-1,0-0.9-0.8-0.9-1.4c0-2.6-0.1-5.1,0-7.7
					c0-0.6,0.5-1.2,0.9-1.6c2.1-1.8,4.3-3.5,6.5-5.3c1.5-1.3,1.9-2.9,1.4-4.8C311.6,236.6,311.6,236.3,311.6,236z"/>
				<path class="st4" d="M302.2,246.5c-0.2,0.3-0.4,0.8-0.8,1.4c-1.4-0.9-2.9-1.7-4.1-2.8c-1.1-0.9-2.2-1.1-3.4-0.5
					c-0.3,0.1-0.6,0.1-1.2,0.2c1-3,0.8-6.2,2.6-8.9c0.1,0,0.3,0,0.4,0c0,0.4,0,0.8-0.1,1.2c-0.4,1.5-0.1,2.9,1,4
					C298.5,243,300.3,244.7,302.2,246.5z"/>
				<path class="st3" d="M314.5,252c1.4,0,2.8,0,4.2,0c0.9,0,1.2,0.3,1.2,1.2c-0.1,1.1,0,2.2,0,3.3c-0.1,2.8-2.5,5.3-5.2,5.4
					c-2.6,0.1-5.2-2.4-5.4-5.2c-0.1-1.3,0-2.5,0-3.8c0-0.8,0.4-1,1.1-1C311.7,252,313.1,252,314.5,252z M310.4,253.2
					c0,1.3-0.1,2.4,0,3.5c0.2,2.2,1.9,3.9,3.8,4c1.9,0.1,3.7-1.1,4.2-3.1c0.3-1.4,0.3-2.9,0.4-4.4
					C315.9,253.2,313.2,253.2,310.4,253.2z"/>
				<path class="st4" d="M310.4,253.2c2.8,0,5.5,0,8.4,0c-0.1,1.5-0.1,3-0.4,4.4c-0.5,2-2.3,3.3-4.2,3.1c-1.9-0.1-3.6-1.8-3.8-4
					C310.3,255.6,310.4,254.5,310.4,253.2z M311.7,254.2c-0.2,2-0.3,3.8,1.5,5c1,0.6,2,0.5,3-0.2c1.2-1,1.6-2.8,1-4.7
					C315.5,254.2,313.6,254.2,311.7,254.2z"/>
				<path class="st3" d="M311.7,254.2c2,0,3.8,0,5.6,0c0.6,2,0.2,3.7-1,4.7c-0.9,0.8-2,0.9-3,0.2
					C311.4,258.1,311.5,256.2,311.7,254.2z"/>
			</g>
		</g>
		<g>
			<g>
				<path class="st4" d="M369.1,241.2c4.7-0.5,8.3,2.7,8.4,7.2c0,2.4,0,4.9,0,7.3c0,0.8,0.1,1.7,1.2,1.7c1.1,0,1.1-0.8,1.1-1.7
					c0-2.6,0-5.1,0-7.7c0-4.7-3.9-8.8-8.6-9.2c-0.3,0-0.6-0.1-0.8,0c-1.6,0.2-2.2-0.6-2.2-2.1c7.7-0.8,13.7,4.4,13.8,12.1
					c0.1,6.8,0,13.5,0,20.3c0,1-0.3,1.4-1.4,1.4c-15.1,0-30.2,0-45.3,0c-1,0-1.4-0.4-1.4-1.4c0-6.9-0.1-13.7,0.1-20.6
					c0.2-7.5,6-12.4,13.9-11.8c-0.1,1.2-0.4,2-2,2c-6.4,0.1-10.2,5.3-9.7,10.3c0.2,2.2,0,4.4,0,6.6c0,0.8-0.1,1.8,1.1,1.8
					c1.2,0,1.1-1,1.1-1.9c0-2.6-0.1-5.1,0-7.7c0.2-4.2,4.2-7.4,8.4-6.6c-0.2,0.9-0.4,1.8-0.6,2.7c-0.4,1.4,0.4,2.4,1.7,1.8
					c1.7-0.8,2.9-0.1,4.1,0.9c0.4,0.4,0.9,0.7,1.4,0.9c2.3,0.8,2.9,2.5,2.6,4.8c-0.2,1.4-0.1,2.8,0,4.2c0,1.6,0.6,2.2,2.1,2.2
					c1.4,0,1.9-0.6,1.9-2.1c0-2.1,0-4.2,0-6.3c0-0.8,0.2-1.4,1-1.8c1.1-0.6,2.1-1.2,3.1-1.9c1.2-1,2.3-1.6,4-0.9
					c1.4,0.6,2.1-0.4,1.8-2C369.5,243,369.4,242.1,369.1,241.2z M368.8,252c-1.4,0-2.8,0-4.2,0c-0.7,0-1.1,0.2-1.1,1
					c0,1.3-0.1,2.5,0,3.8c0.2,2.8,2.8,5.3,5.4,5.2c2.7-0.1,5.1-2.6,5.2-5.4c0-1.1,0-2.2,0-3.3c0-0.9-0.2-1.3-1.2-1.2
					C371.6,252.1,370.2,252,368.8,252z"/>
				<path class="st4" d="M348.2,211c0.4-0.4,0.8-0.7,0.9-1.1c0.4-1.4,0.8-2.8,1.2-4.3c0.5,0.3,0.8,0.4,1.3,0.7
					c0.7-1.5,1.3-3,2.1-4.8c0.4,0.6,0.6,1.1,1.1,2c1-1.7,1.9-3.1,2.9-4.6c0.3,1.1,0.6,2.4,0.9,3.6c0.7-0.1,1.3-0.2,1.8-0.3
					c0.8,1,1.6,2,2.4,3c0.3-0.2,0.8-0.3,0.9-0.4c0.9,1,1.8,1.9,2.5,2.9c0.5,0.7,0.4,1.7,0.8,2.5c0.2,0.5,0.6,0.9,0.9,1.4
					c0.1,0.2,0.2,0.5,0.2,0.7c0.1,1.2,0.2,2.3,0.3,3.5c0.2,1.1,0,2.3,1.5,2.8c0.4,0.2,0.9,1.3,0.7,1.9c-0.6,2.4-1,4.8-3.2,6.4
					c-0.2,0.2-0.4,0.5-0.5,0.8c-0.4,2.2-1.5,3.9-3,5.4c-1.5,1.5-1.4,2.1,0.4,3.2c0.7,0.4,1,2.5,0.2,3.3c-2,2-4.1,3.8-6.2,5.6
					c-0.2,0.2-0.9,0.1-1.1-0.1c-2-1.7-4-3.4-5.8-5.2c-1.2-1.3-0.7-2.9,0.8-3.6c0.9-0.4,1-1.5,0.2-2.5c-0.6-0.8-1.6-1.4-2-2.3
					c-1.2-3.1-3.5-5.5-4.6-8.5c-0.2-0.6-0.5-1.2-0.6-1.8c-0.3-1.3,0-2.4,1.4-3c0.4-0.2,0.7-0.7,0.8-1.1C347.8,215,348,213,348.2,211
					z"/>
				<path class="st4" d="M365.9,236c2.2,2.5,1.9,5.8,3,8.7c-0.4,0-0.7,0.1-0.8,0c-1.7-1-3-0.3-4.4,0.8c-1.1,0.9-2.4,1.6-3.7,2.3
					c-0.8,0.4-1.1,1-1.1,1.9c0,2.2,0,4.4,0,6.6c0,0.7,0,1.4-0.9,1.4c-1,0-0.9-0.8-0.9-1.4c0-2.6-0.1-5.1,0-7.7
					c0-0.6,0.5-1.2,0.9-1.6c2.1-1.8,4.3-3.5,6.5-5.3c1.5-1.3,1.9-2.9,1.4-4.8C365.9,236.6,365.9,236.3,365.9,236z"/>
				<path class="st4" d="M356.5,246.5c-0.2,0.3-0.4,0.8-0.8,1.4c-1.4-0.9-2.9-1.7-4.1-2.8c-1.1-0.9-2.2-1.1-3.4-0.5
					c-0.3,0.1-0.6,0.1-1.2,0.2c1-3,0.8-6.2,2.6-8.9c0.1,0,0.3,0,0.4,0c0,0.4,0,0.8-0.1,1.2c-0.4,1.5-0.1,2.9,1,4
					C352.8,243,354.6,244.7,356.5,246.5z"/>
				<path class="st3" d="M368.8,252c1.4,0,2.8,0,4.2,0c0.9,0,1.2,0.3,1.2,1.2c-0.1,1.1,0,2.2,0,3.3c-0.1,2.8-2.5,5.3-5.2,5.4
					c-2.6,0.1-5.2-2.4-5.4-5.2c-0.1-1.3,0-2.5,0-3.8c0-0.8,0.4-1,1.1-1C366,252,367.4,252,368.8,252z M364.7,253.2
					c0,1.3-0.1,2.4,0,3.5c0.2,2.2,1.9,3.9,3.8,4c1.9,0.1,3.7-1.1,4.2-3.1c0.3-1.4,0.3-2.9,0.4-4.4
					C370.2,253.2,367.5,253.2,364.7,253.2z"/>
				<path class="st4" d="M364.7,253.2c2.8,0,5.5,0,8.4,0c-0.1,1.5-0.1,3-0.4,4.4c-0.5,2-2.3,3.3-4.2,3.1c-1.9-0.1-3.6-1.8-3.8-4
					C364.6,255.6,364.7,254.5,364.7,253.2z M366,254.2c-0.2,2-0.3,3.8,1.5,5c1,0.6,2,0.5,3-0.2c1.2-1,1.6-2.8,1-4.7
					C369.8,254.2,367.9,254.2,366,254.2z"/>
				<path class="st3" d="M366,254.2c2,0,3.8,0,5.6,0c0.6,2,0.2,3.7-1,4.7c-0.9,0.8-2,0.9-3,0.2C365.7,258.1,365.8,256.2,366,254.2z"
					/>
			</g>
		</g>
		<g>
			<g>
				<path class="st4" d="M43.3,241.2c4.7-0.5,8.3,2.7,8.4,7.2c0,2.4,0,4.9,0,7.3c0,0.8,0.1,1.7,1.2,1.7c1.1,0,1.1-0.8,1.1-1.7
					c0-2.6,0-5.1,0-7.7c0-4.7-3.9-8.8-8.6-9.2c-0.3,0-0.6-0.1-0.8,0c-1.6,0.2-2.2-0.6-2.2-2.1c7.7-0.8,13.7,4.4,13.8,12.1
					c0.1,6.8,0,13.5,0,20.3c0,1-0.3,1.4-1.4,1.4c-15.1,0-30.2,0-45.3,0c-1,0-1.4-0.4-1.4-1.4c0-6.9-0.1-13.7,0.1-20.6
					c0.2-7.5,6-12.4,13.9-11.8c-0.1,1.2-0.4,2-2,2c-6.4,0.1-10.2,5.3-9.7,10.3c0.2,2.2,0,4.4,0,6.6c0,0.8-0.1,1.8,1.1,1.8
					c1.2,0,1.1-1,1.1-1.9c0-2.6-0.1-5.1,0-7.7c0.2-4.2,4.3-7.4,8.4-6.6c-0.2,0.9-0.4,1.8-0.6,2.7c-0.4,1.4,0.4,2.4,1.7,1.8
					c1.7-0.8,2.9-0.1,4.1,0.9c0.4,0.4,0.9,0.7,1.4,0.9c2.3,0.8,2.9,2.5,2.6,4.8c-0.2,1.4-0.1,2.8,0,4.2c0,1.6,0.6,2.2,2.1,2.2
					c1.4,0,1.9-0.6,1.9-2.1c0-2.1,0-4.2,0-6.3c0-0.8,0.2-1.4,1-1.8c1.1-0.6,2.1-1.2,3.1-1.9c1.2-1,2.3-1.6,4-0.9
					c1.4,0.6,2.1-0.4,1.8-2C43.7,243,43.5,242.1,43.3,241.2z M43,252c-1.4,0-2.8,0-4.2,0c-0.7,0-1.1,0.2-1.1,1c0,1.3-0.1,2.5,0,3.8
					c0.2,2.8,2.8,5.3,5.4,5.2c2.7-0.1,5.1-2.6,5.2-5.4c0-1.1,0-2.2,0-3.3c0-0.9-0.3-1.3-1.2-1.2C45.8,252.1,44.4,252,43,252z"/>
				<path class="st4" d="M22.3,211c0.4-0.4,0.8-0.7,0.9-1.1c0.4-1.4,0.8-2.8,1.2-4.3c0.5,0.3,0.8,0.4,1.3,0.7c0.7-1.5,1.3-3,2.1-4.8
					c0.4,0.6,0.6,1.1,1.1,2c1-1.7,1.9-3.1,2.9-4.6c0.3,1.1,0.6,2.4,0.9,3.6c0.7-0.1,1.3-0.2,1.8-0.3c0.8,1,1.6,2,2.4,3
					c0.3-0.2,0.8-0.3,0.9-0.4c0.9,1,1.8,1.9,2.5,2.9c0.5,0.7,0.5,1.7,0.8,2.5c0.2,0.5,0.6,0.9,0.9,1.4c0.1,0.2,0.2,0.5,0.2,0.7
					c0.1,1.2,0.2,2.3,0.3,3.5c0.2,1.1,0,2.3,1.5,2.8c0.4,0.2,0.9,1.3,0.7,1.9c-0.6,2.4-1,4.8-3.2,6.4c-0.2,0.2-0.4,0.5-0.5,0.8
					c-0.4,2.2-1.5,3.9-3,5.4c-1.5,1.5-1.4,2.1,0.4,3.2c0.7,0.4,1,2.5,0.2,3.3c-2,2-4.1,3.8-6.2,5.6c-0.2,0.2-0.9,0.1-1.1-0.1
					c-2-1.7-4-3.4-5.8-5.2c-1.2-1.3-0.7-2.9,0.8-3.6c0.9-0.4,1-1.5,0.2-2.5c-0.6-0.8-1.6-1.4-2-2.3c-1.2-3.1-3.5-5.5-4.6-8.5
					c-0.2-0.6-0.5-1.2-0.6-1.8c-0.3-1.3,0-2.4,1.4-3c0.4-0.2,0.7-0.7,0.8-1.1C21.9,215,22.1,213,22.3,211z"/>
				<path class="st4" d="M40.1,236c2.2,2.5,1.9,5.8,3,8.7c-0.4,0-0.7,0.1-0.8,0c-1.7-1-3-0.3-4.4,0.8c-1.1,0.9-2.4,1.6-3.7,2.3
					c-0.8,0.4-1.1,1-1.1,1.9c0,2.2,0,4.4,0,6.6c0,0.7,0,1.4-0.9,1.4c-1,0-0.9-0.8-0.9-1.4c0-2.6-0.1-5.1,0-7.7
					c0-0.6,0.5-1.2,0.9-1.6c2.1-1.8,4.3-3.5,6.5-5.3c1.5-1.3,1.9-2.9,1.4-4.8C40,236.6,40.1,236.3,40.1,236z"/>
				<path class="st4" d="M30.7,246.5c-0.2,0.3-0.4,0.8-0.8,1.4c-1.4-0.9-2.9-1.7-4.1-2.8c-1.1-0.9-2.2-1.1-3.4-0.5
					c-0.3,0.1-0.6,0.1-1.2,0.2c1-3,0.8-6.2,2.6-8.9c0.1,0,0.3,0,0.4,0c0,0.4,0,0.8-0.1,1.2c-0.4,1.5-0.1,2.9,1,4
					C26.9,243,28.8,244.7,30.7,246.5z"/>
				<path class="st3" d="M43,252c1.4,0,2.8,0,4.2,0c0.9,0,1.2,0.3,1.2,1.2c-0.1,1.1,0,2.2,0,3.3c-0.1,2.8-2.5,5.3-5.2,5.4
					c-2.6,0.1-5.2-2.4-5.4-5.2c-0.1-1.3,0-2.5,0-3.8c0-0.8,0.4-1,1.1-1C40.2,252,41.6,252,43,252z M38.9,253.2c0,1.3-0.1,2.4,0,3.5
					c0.2,2.2,1.9,3.9,3.8,4c1.9,0.1,3.7-1.1,4.2-3.1c0.3-1.4,0.3-2.9,0.4-4.4C44.3,253.2,41.7,253.2,38.9,253.2z"/>
				<path class="st4" d="M38.9,253.2c2.8,0,5.5,0,8.4,0c-0.1,1.5-0.1,3-0.4,4.4c-0.5,2-2.3,3.3-4.2,3.1c-1.9-0.1-3.6-1.8-3.8-4
					C38.8,255.6,38.9,254.5,38.9,253.2z M40.2,254.2c-0.2,2-0.3,3.8,1.5,5c1,0.6,2,0.5,3-0.2c1.2-1,1.6-2.8,1-4.7
					C43.9,254.2,42.1,254.2,40.2,254.2z"/>
				<path class="st3" d="M40.2,254.2c2,0,3.8,0,5.6,0c0.6,2,0.2,3.7-1,4.7c-0.9,0.8-2,0.9-3,0.2C39.8,258.1,40,256.2,40.2,254.2z"/>
			</g>
		</g>
		<g>
			<g>
				<path class="st4" d="M97.6,241.2c4.7-0.5,8.3,2.7,8.4,7.2c0,2.4,0,4.9,0,7.3c0,0.8,0.1,1.7,1.2,1.7c1.1,0,1.1-0.8,1.1-1.7
					c0-2.6,0-5.1,0-7.7c0-4.7-3.9-8.8-8.6-9.2c-0.3,0-0.6-0.1-0.8,0c-1.6,0.2-2.2-0.6-2.2-2.1c7.7-0.8,13.7,4.4,13.8,12.1
					c0.1,6.8,0,13.5,0,20.3c0,1-0.3,1.4-1.4,1.4c-15.1,0-30.2,0-45.3,0c-1,0-1.4-0.4-1.4-1.4c0-6.9-0.1-13.7,0.1-20.6
					c0.2-7.5,6-12.4,13.9-11.8c-0.1,1.2-0.4,2-2,2c-6.4,0.1-10.2,5.3-9.7,10.3c0.2,2.2,0,4.4,0,6.6c0,0.8-0.1,1.8,1.1,1.8
					c1.2,0,1.1-1,1.1-1.9c0-2.6-0.1-5.1,0-7.7c0.2-4.2,4.2-7.4,8.4-6.6c-0.2,0.9-0.4,1.8-0.6,2.7c-0.4,1.4,0.4,2.4,1.7,1.8
					c1.7-0.8,2.9-0.1,4.1,0.9c0.4,0.4,0.9,0.7,1.4,0.9c2.3,0.8,2.9,2.5,2.6,4.8c-0.2,1.4-0.1,2.8,0,4.2c0,1.6,0.6,2.2,2.1,2.2
					c1.4,0,1.9-0.6,1.9-2.1c0-2.1,0-4.2,0-6.3c0-0.8,0.2-1.4,1-1.8c1.1-0.6,2.1-1.2,3.1-1.9c1.2-1,2.3-1.6,4-0.9
					c1.4,0.6,2.1-0.4,1.8-2C98,243,97.8,242.1,97.6,241.2z M97.3,252c-1.4,0-2.8,0-4.2,0c-0.7,0-1.1,0.2-1.1,1c0,1.3,0,2.5,0,3.8
					c0.2,2.8,2.8,5.3,5.4,5.2c2.7-0.1,5.1-2.6,5.2-5.4c0-1.1,0-2.2,0-3.3c0-0.9-0.3-1.3-1.2-1.2C100.1,252.1,98.7,252,97.3,252z"/>
				<path class="st4" d="M76.6,211c0.4-0.4,0.8-0.7,0.9-1.1c0.4-1.4,0.8-2.8,1.2-4.3c0.5,0.3,0.8,0.4,1.3,0.7c0.7-1.5,1.3-3,2.1-4.8
					c0.4,0.6,0.6,1.1,1.1,2c1-1.7,1.9-3.1,2.9-4.6c0.3,1.1,0.6,2.4,0.9,3.6c0.7-0.1,1.3-0.2,1.8-0.3c0.8,1,1.6,2,2.4,3
					c0.3-0.2,0.8-0.3,0.9-0.4c0.9,1,1.8,1.9,2.5,2.9c0.5,0.7,0.4,1.7,0.8,2.5c0.2,0.5,0.6,0.9,0.9,1.4c0.1,0.2,0.2,0.5,0.2,0.7
					c0.1,1.2,0.2,2.3,0.3,3.5c0.2,1.1,0,2.3,1.5,2.8c0.4,0.2,0.9,1.3,0.7,1.9c-0.6,2.4-1,4.8-3.2,6.4c-0.2,0.2-0.4,0.5-0.5,0.8
					c-0.4,2.2-1.5,3.9-3,5.4c-1.5,1.5-1.4,2.1,0.4,3.2c0.7,0.4,1,2.5,0.2,3.3c-2,2-4.1,3.8-6.2,5.6c-0.2,0.2-0.9,0.1-1.1-0.1
					c-2-1.7-4-3.4-5.8-5.2c-1.2-1.3-0.7-2.9,0.8-3.6c0.9-0.4,1-1.5,0.2-2.5c-0.6-0.8-1.6-1.4-2-2.3c-1.2-3.1-3.5-5.5-4.6-8.5
					c-0.2-0.6-0.5-1.2-0.6-1.8c-0.3-1.3,0-2.4,1.4-3c0.4-0.2,0.7-0.7,0.8-1.1C76.2,215,76.4,213,76.6,211z"/>
				<path class="st4" d="M94.4,236c2.2,2.5,1.9,5.8,3,8.7c-0.4,0-0.7,0.1-0.8,0c-1.7-1-3-0.3-4.4,0.8c-1.1,0.9-2.4,1.6-3.7,2.3
					c-0.8,0.4-1.1,1-1.1,1.9c0,2.2,0,4.4,0,6.6c0,0.7,0,1.4-0.9,1.4c-1,0-0.9-0.8-0.9-1.4c0-2.6-0.1-5.1,0-7.7
					c0-0.6,0.5-1.2,0.9-1.6c2.1-1.8,4.3-3.5,6.5-5.3c1.5-1.3,1.9-2.9,1.4-4.8C94.3,236.6,94.4,236.3,94.4,236z"/>
				<path class="st4" d="M85,246.5c-0.2,0.3-0.4,0.8-0.8,1.4c-1.4-0.9-2.9-1.7-4.1-2.8c-1.1-0.9-2.2-1.1-3.4-0.5
					c-0.3,0.1-0.6,0.1-1.2,0.2c1-3,0.8-6.2,2.6-8.9c0.1,0,0.3,0,0.4,0c0,0.4,0,0.8-0.1,1.2c-0.4,1.5-0.1,2.9,1,4
					C81.2,243,83.1,244.7,85,246.5z"/>
				<path class="st3" d="M97.3,252c1.4,0,2.8,0,4.2,0c0.9,0,1.2,0.3,1.2,1.2c-0.1,1.1,0,2.2,0,3.3c-0.1,2.8-2.5,5.3-5.2,5.4
					c-2.6,0.1-5.2-2.4-5.4-5.2c-0.1-1.3,0-2.5,0-3.8c0-0.8,0.4-1,1.1-1C94.5,252,95.9,252,97.3,252z M93.2,253.2
					c0,1.3-0.1,2.4,0,3.5c0.2,2.2,1.9,3.9,3.8,4c1.9,0.1,3.7-1.1,4.2-3.1c0.3-1.4,0.3-2.9,0.4-4.4C98.6,253.2,96,253.2,93.2,253.2z"
					/>
				<path class="st4" d="M93.2,253.2c2.8,0,5.5,0,8.4,0c-0.1,1.5-0.1,3-0.4,4.4c-0.5,2-2.3,3.3-4.2,3.1c-1.9-0.1-3.6-1.8-3.8-4
					C93.1,255.6,93.2,254.5,93.2,253.2z M94.5,254.2c-0.2,2-0.3,3.8,1.5,5c1,0.6,2,0.5,3-0.2c1.2-1,1.6-2.8,1-4.7
					C98.2,254.2,96.4,254.2,94.5,254.2z"/>
				<path class="st3" d="M94.5,254.2c2,0,3.8,0,5.6,0c0.6,2,0.2,3.7-1,4.7c-0.9,0.8-2,0.9-3,0.2C94.1,258.1,94.3,256.2,94.5,254.2z"
					/>
			</g>
		</g>
		<g>
			<g>
				<path class="st4" d="M206.2,241.2c4.7-0.5,8.3,2.7,8.4,7.2c0,2.4,0,4.9,0,7.3c0,0.8,0.1,1.7,1.2,1.7c1.1,0,1.1-0.8,1.1-1.7
					c0-2.6,0-5.1,0-7.7c0-4.7-3.9-8.8-8.6-9.2c-0.3,0-0.6-0.1-0.8,0c-1.6,0.2-2.2-0.6-2.2-2.1c7.7-0.8,13.7,4.4,13.8,12.1
					c0.1,6.8,0,13.5,0,20.3c0,1-0.3,1.4-1.4,1.4c-15.1,0-30.2,0-45.3,0c-1,0-1.4-0.4-1.4-1.4c0-6.9-0.1-13.7,0.1-20.6
					c0.2-7.5,6-12.4,13.9-11.8c-0.1,1.2-0.4,2-2,2c-6.4,0.1-10.2,5.3-9.7,10.3c0.2,2.2,0,4.4,0,6.6c0,0.8-0.1,1.8,1.1,1.8
					c1.2,0,1.1-1,1.1-1.9c0-2.6-0.1-5.1,0-7.7c0.2-4.2,4.3-7.4,8.4-6.6c-0.2,0.9-0.4,1.8-0.6,2.7c-0.4,1.4,0.4,2.4,1.7,1.8
					c1.7-0.8,2.9-0.1,4.1,0.9c0.4,0.4,0.9,0.7,1.4,0.9c2.3,0.8,2.9,2.5,2.6,4.8c-0.2,1.4-0.1,2.8,0,4.2c0,1.6,0.6,2.2,2.1,2.2
					c1.4,0,1.9-0.6,1.9-2.1c0-2.1,0-4.2,0-6.3c0-0.8,0.2-1.4,1-1.8c1.1-0.6,2.1-1.2,3.1-1.9c1.2-1,2.3-1.6,4-0.9
					c1.4,0.6,2.1-0.4,1.8-2C206.6,243,206.4,242.1,206.2,241.2z M205.9,252c-1.4,0-2.8,0-4.2,0c-0.7,0-1.1,0.2-1.1,1
					c0,1.3-0.1,2.5,0,3.8c0.2,2.8,2.8,5.3,5.4,5.2c2.7-0.1,5.1-2.6,5.2-5.4c0-1.1,0-2.2,0-3.3c0-0.9-0.2-1.3-1.2-1.2
					C208.7,252.1,207.3,252,205.9,252z"/>
				<path class="st4" d="M185.2,211c0.4-0.4,0.8-0.7,0.9-1.1c0.4-1.4,0.8-2.8,1.2-4.3c0.5,0.3,0.8,0.4,1.3,0.7
					c0.7-1.5,1.3-3,2.1-4.8c0.4,0.6,0.6,1.1,1.1,2c1-1.7,1.9-3.1,2.9-4.6c0.3,1.1,0.6,2.4,0.9,3.6c0.7-0.1,1.3-0.2,1.8-0.3
					c0.8,1,1.6,2,2.4,3c0.3-0.2,0.8-0.3,0.9-0.4c0.9,1,1.8,1.9,2.5,2.9c0.5,0.7,0.4,1.7,0.8,2.5c0.2,0.5,0.6,0.9,0.9,1.4
					c0.1,0.2,0.2,0.5,0.2,0.7c0.1,1.2,0.2,2.3,0.3,3.5c0.2,1.1,0,2.3,1.5,2.8c0.4,0.2,0.9,1.3,0.7,1.9c-0.6,2.4-1,4.8-3.2,6.4
					c-0.2,0.2-0.4,0.5-0.5,0.8c-0.4,2.2-1.5,3.9-3,5.4c-1.5,1.5-1.4,2.1,0.4,3.2c0.7,0.4,1,2.5,0.2,3.3c-2,2-4.1,3.8-6.2,5.6
					c-0.2,0.2-0.9,0.1-1.1-0.1c-2-1.7-4-3.4-5.8-5.2c-1.2-1.3-0.7-2.9,0.8-3.6c0.9-0.4,1-1.5,0.2-2.5c-0.6-0.8-1.6-1.4-2-2.3
					c-1.2-3.1-3.5-5.5-4.6-8.5c-0.2-0.6-0.5-1.2-0.6-1.8c-0.3-1.3,0-2.4,1.4-3c0.4-0.2,0.7-0.7,0.8-1.1C184.8,215,185,213,185.2,211
					z"/>
				<path class="st4" d="M203,236c2.2,2.5,1.9,5.8,3,8.7c-0.4,0-0.7,0.1-0.8,0c-1.7-1-3-0.3-4.4,0.8c-1.1,0.9-2.4,1.6-3.7,2.3
					c-0.8,0.4-1.1,1-1.1,1.9c0,2.2,0,4.4,0,6.6c0,0.7,0,1.4-0.9,1.4c-1,0-0.9-0.8-0.9-1.4c0-2.6-0.1-5.1,0-7.7
					c0-0.6,0.5-1.2,0.9-1.6c2.1-1.8,4.3-3.5,6.5-5.3c1.5-1.3,1.9-2.9,1.4-4.8C202.9,236.6,203,236.3,203,236z"/>
				<path class="st4" d="M193.6,246.5c-0.2,0.3-0.4,0.8-0.8,1.4c-1.4-0.9-2.9-1.7-4.1-2.8c-1.1-0.9-2.2-1.1-3.4-0.5
					c-0.3,0.1-0.6,0.1-1.2,0.2c1-3,0.8-6.2,2.6-8.9c0.1,0,0.3,0,0.4,0c0,0.4,0,0.8-0.1,1.2c-0.4,1.5-0.1,2.9,1,4
					C189.8,243,191.7,244.7,193.6,246.5z"/>
				<path class="st3" d="M205.9,252c1.4,0,2.8,0,4.2,0c0.9,0,1.2,0.3,1.2,1.2c-0.1,1.1,0,2.2,0,3.3c-0.1,2.8-2.5,5.3-5.2,5.4
					c-2.6,0.1-5.2-2.4-5.4-5.2c-0.1-1.3,0-2.5,0-3.8c0-0.8,0.4-1,1.1-1C203.1,252,204.5,252,205.9,252z M201.8,253.2
					c0,1.3-0.1,2.4,0,3.5c0.2,2.2,1.9,3.9,3.8,4c1.9,0.1,3.7-1.1,4.2-3.1c0.3-1.4,0.3-2.9,0.4-4.4
					C207.2,253.2,204.6,253.2,201.8,253.2z"/>
				<path class="st4" d="M201.8,253.2c2.8,0,5.5,0,8.4,0c-0.1,1.5-0.1,3-0.4,4.4c-0.5,2-2.3,3.3-4.2,3.1c-1.9-0.1-3.6-1.8-3.8-4
					C201.7,255.6,201.8,254.5,201.8,253.2z M203.1,254.2c-0.2,2-0.3,3.8,1.5,5c1,0.6,2,0.5,3-0.2c1.2-1,1.6-2.8,1-4.7
					C206.8,254.2,205,254.2,203.1,254.2z"/>
				<path class="st3" d="M203.1,254.2c2,0,3.8,0,5.6,0c0.6,2,0.2,3.7-1,4.7c-0.9,0.8-2,0.9-3,0.2
					C202.7,258.1,202.9,256.2,203.1,254.2z"/>
			</g>
		</g>
		<g>
			<g>
				<path class="st4" d="M260.5,241.2c4.7-0.5,8.3,2.7,8.4,7.2c0,2.4,0,4.9,0,7.3c0,0.8,0.1,1.7,1.2,1.7c1.1,0,1.1-0.8,1.1-1.7
					c0-2.6,0-5.1,0-7.7c0-4.7-3.9-8.8-8.6-9.2c-0.3,0-0.6-0.1-0.8,0c-1.6,0.2-2.2-0.6-2.2-2.1c7.7-0.8,13.7,4.4,13.8,12.1
					c0.1,6.8,0,13.5,0,20.3c0,1-0.3,1.4-1.4,1.4c-15.1,0-30.2,0-45.3,0c-1,0-1.4-0.4-1.4-1.4c0-6.9-0.1-13.7,0.1-20.6
					c0.2-7.5,6-12.4,13.8-11.8c-0.1,1.2-0.4,2-2,2c-6.4,0.1-10.2,5.3-9.7,10.3c0.2,2.2,0,4.4,0,6.6c0,0.8-0.1,1.8,1.1,1.8
					c1.2,0,1.1-1,1.1-1.9c0-2.6-0.1-5.1,0-7.7c0.2-4.2,4.2-7.4,8.4-6.6c-0.2,0.9-0.4,1.8-0.6,2.7c-0.4,1.4,0.4,2.4,1.7,1.8
					c1.7-0.8,2.9-0.1,4.1,0.9c0.4,0.4,0.9,0.7,1.4,0.9c2.3,0.8,2.9,2.5,2.6,4.8c-0.2,1.4-0.1,2.8,0,4.2c0,1.6,0.6,2.2,2.1,2.2
					c1.4,0,1.9-0.6,1.9-2.1c0-2.1,0-4.2,0-6.3c0-0.8,0.2-1.4,1-1.8c1.1-0.6,2.1-1.2,3.1-1.9c1.2-1,2.3-1.6,4-0.9
					c1.4,0.6,2.1-0.4,1.8-2C260.9,243,260.7,242.1,260.5,241.2z M260.2,252c-1.4,0-2.8,0-4.2,0c-0.7,0-1.1,0.2-1.1,1
					c0,1.3-0.1,2.5,0,3.8c0.2,2.8,2.8,5.3,5.4,5.2c2.7-0.1,5.1-2.6,5.2-5.4c0-1.1,0-2.2,0-3.3c0-0.9-0.2-1.3-1.2-1.2
					C263,252.1,261.6,252,260.2,252z"/>
				<path class="st4" d="M239.5,211c0.4-0.4,0.8-0.7,0.9-1.1c0.4-1.4,0.8-2.8,1.2-4.3c0.5,0.3,0.8,0.4,1.3,0.7
					c0.7-1.5,1.3-3,2.1-4.8c0.4,0.6,0.6,1.1,1.1,2c1-1.7,1.9-3.1,2.9-4.6c0.3,1.1,0.6,2.4,0.9,3.6c0.7-0.1,1.3-0.2,1.8-0.3
					c0.8,1,1.6,2,2.4,3c0.3-0.2,0.8-0.3,0.9-0.4c0.9,1,1.8,1.9,2.5,2.9c0.5,0.7,0.4,1.7,0.8,2.5c0.2,0.5,0.6,0.9,0.9,1.4
					c0.1,0.2,0.2,0.5,0.2,0.7c0.1,1.2,0.2,2.3,0.3,3.5c0.2,1.1,0,2.3,1.5,2.8c0.4,0.2,0.9,1.3,0.7,1.9c-0.6,2.4-1,4.8-3.2,6.4
					c-0.2,0.2-0.4,0.5-0.5,0.8c-0.4,2.2-1.5,3.9-3,5.4c-1.5,1.5-1.4,2.1,0.4,3.2c0.7,0.4,1,2.5,0.2,3.3c-2,2-4.1,3.8-6.2,5.6
					c-0.2,0.2-0.9,0.1-1.1-0.1c-2-1.7-4-3.4-5.8-5.2c-1.2-1.3-0.7-2.9,0.8-3.6c0.9-0.4,1-1.5,0.2-2.5c-0.6-0.8-1.6-1.4-2-2.3
					c-1.2-3.1-3.5-5.5-4.6-8.5c-0.2-0.6-0.5-1.2-0.6-1.8c-0.3-1.3,0-2.4,1.4-3c0.4-0.2,0.7-0.7,0.8-1.1
					C239.1,215,239.3,213,239.5,211z"/>
				<path class="st4" d="M257.3,236c2.2,2.5,1.9,5.8,3,8.7c-0.4,0-0.7,0.1-0.8,0c-1.7-1-3-0.3-4.4,0.8c-1.1,0.9-2.4,1.6-3.7,2.3
					c-0.8,0.4-1.1,1-1.1,1.9c0,2.2,0,4.4,0,6.6c0,0.7,0,1.4-0.9,1.4c-1,0-0.9-0.8-0.9-1.4c0-2.6-0.1-5.1,0-7.7
					c0-0.6,0.5-1.2,0.9-1.6c2.1-1.8,4.3-3.5,6.5-5.3c1.5-1.3,1.9-2.9,1.4-4.8C257.2,236.6,257.3,236.3,257.3,236z"/>
				<path class="st4" d="M247.9,246.5c-0.2,0.3-0.4,0.8-0.8,1.4c-1.4-0.9-2.9-1.7-4.1-2.8c-1.1-0.9-2.2-1.1-3.4-0.5
					c-0.3,0.1-0.6,0.1-1.2,0.2c1-3,0.8-6.2,2.6-8.9c0.1,0,0.3,0,0.4,0c0,0.4,0,0.8-0.1,1.2c-0.4,1.5-0.1,2.9,1,4
					C244.1,243,246,244.7,247.9,246.5z"/>
				<path class="st3" d="M260.2,252c1.4,0,2.8,0,4.2,0c0.9,0,1.2,0.3,1.2,1.2c-0.1,1.1,0,2.2,0,3.3c-0.1,2.8-2.5,5.3-5.2,5.4
					c-2.6,0.1-5.2-2.4-5.4-5.2c-0.1-1.3,0-2.5,0-3.8c0-0.8,0.4-1,1.1-1C257.4,252,258.8,252,260.2,252z M256.1,253.2
					c0,1.3-0.1,2.4,0,3.5c0.2,2.2,1.9,3.9,3.8,4c1.9,0.1,3.7-1.1,4.2-3.1c0.3-1.4,0.3-2.9,0.4-4.4
					C261.5,253.2,258.9,253.2,256.1,253.2z"/>
				<path class="st4" d="M256.1,253.2c2.8,0,5.5,0,8.4,0c-0.1,1.5-0.1,3-0.4,4.4c-0.5,2-2.3,3.3-4.2,3.1c-1.9-0.1-3.6-1.8-3.8-4
					C256,255.6,256.1,254.5,256.1,253.2z M257.4,254.2c-0.2,2-0.3,3.8,1.5,5c1,0.6,2,0.5,3-0.2c1.2-1,1.6-2.8,1-4.7
					C261.1,254.2,259.3,254.2,257.4,254.2z"/>
				<path class="st3" d="M257.4,254.2c2,0,3.8,0,5.6,0c0.6,2,0.2,3.7-1,4.7c-0.9,0.8-2,0.9-3,0.2C257,258.1,257.2,256.2,257.4,254.2
					z"/>
			</g>
		</g>
		<g>
			<g>
				<path class="st4" d="M151.9,241.2c4.7-0.5,8.3,2.7,8.4,7.2c0,2.4,0,4.9,0,7.3c0,0.8,0.1,1.7,1.2,1.7c1.1,0,1.1-0.8,1.1-1.7
					c0-2.6,0-5.1,0-7.7c0-4.7-3.9-8.8-8.6-9.2c-0.3,0-0.6-0.1-0.8,0c-1.6,0.2-2.2-0.6-2.2-2.1c7.7-0.8,13.7,4.4,13.8,12.1
					c0.1,6.8,0,13.5,0,20.3c0,1-0.3,1.4-1.4,1.4c-15.1,0-30.2,0-45.3,0c-1,0-1.4-0.4-1.4-1.4c0-6.9-0.1-13.7,0.1-20.6
					c0.2-7.5,6-12.4,13.9-11.8c-0.1,1.2-0.4,2-2,2c-6.4,0.1-10.2,5.3-9.7,10.3c0.2,2.2,0,4.4,0,6.6c0,0.8-0.1,1.8,1.1,1.8
					c1.2,0,1.1-1,1.1-1.9c0-2.6-0.1-5.1,0-7.7c0.2-4.2,4.2-7.4,8.4-6.6c-0.2,0.9-0.4,1.8-0.6,2.7c-0.4,1.4,0.4,2.4,1.7,1.8
					c1.7-0.8,2.9-0.1,4.1,0.9c0.4,0.4,0.9,0.7,1.4,0.9c2.3,0.8,2.9,2.5,2.6,4.8c-0.2,1.4-0.1,2.8,0,4.2c0,1.6,0.6,2.2,2.1,2.2
					c1.4,0,1.9-0.6,1.9-2.1c0-2.1,0-4.2,0-6.3c0-0.8,0.2-1.4,1-1.8c1.1-0.6,2.1-1.2,3.1-1.9c1.2-1,2.3-1.6,4-0.9
					c1.4,0.6,2.1-0.4,1.8-2C152.3,243,152.1,242.1,151.9,241.2z M151.6,252c-1.4,0-2.8,0-4.2,0c-0.7,0-1.1,0.2-1.1,1
					c0,1.3-0.1,2.5,0,3.8c0.2,2.8,2.8,5.3,5.4,5.2c2.7-0.1,5.1-2.6,5.2-5.4c0-1.1,0-2.2,0-3.3c0-0.9-0.2-1.3-1.2-1.2
					C154.4,252.1,153,252,151.6,252z"/>
				<path class="st4" d="M130.9,211c0.4-0.4,0.8-0.7,0.9-1.1c0.4-1.4,0.8-2.8,1.2-4.3c0.5,0.3,0.8,0.4,1.3,0.7
					c0.7-1.5,1.3-3,2.1-4.8c0.4,0.6,0.6,1.1,1.1,2c1-1.7,1.9-3.1,2.9-4.6c0.3,1.1,0.6,2.4,0.9,3.6c0.7-0.1,1.3-0.2,1.8-0.3
					c0.8,1,1.6,2,2.4,3c0.3-0.2,0.8-0.3,0.9-0.4c0.9,1,1.8,1.9,2.5,2.9c0.5,0.7,0.4,1.7,0.8,2.5c0.2,0.5,0.6,0.9,0.9,1.4
					c0.1,0.2,0.2,0.5,0.2,0.7c0.1,1.2,0.2,2.3,0.3,3.5c0.2,1.1,0,2.3,1.5,2.8c0.4,0.2,0.9,1.3,0.7,1.9c-0.6,2.4-1,4.8-3.2,6.4
					c-0.2,0.2-0.4,0.5-0.5,0.8c-0.4,2.2-1.5,3.9-3,5.4c-1.5,1.5-1.4,2.1,0.4,3.2c0.7,0.4,1,2.5,0.2,3.3c-2,2-4.1,3.8-6.2,5.6
					c-0.2,0.2-0.9,0.1-1.1-0.1c-2-1.7-4-3.4-5.8-5.2c-1.2-1.3-0.7-2.9,0.8-3.6c0.9-0.4,1-1.5,0.2-2.5c-0.6-0.8-1.6-1.4-2-2.3
					c-1.2-3.1-3.5-5.5-4.6-8.5c-0.2-0.6-0.5-1.2-0.6-1.8c-0.3-1.3,0-2.4,1.4-3c0.4-0.2,0.7-0.7,0.8-1.1
					C130.6,215,130.7,213,130.9,211z"/>
				<path class="st4" d="M148.7,236c2.2,2.5,1.9,5.8,3,8.7c-0.4,0-0.7,0.1-0.8,0c-1.7-1-3-0.3-4.4,0.8c-1.1,0.9-2.4,1.6-3.7,2.3
					c-0.8,0.4-1.1,1-1.1,1.9c0,2.2,0,4.4,0,6.6c0,0.7,0,1.4-0.9,1.4c-1,0-0.9-0.8-0.9-1.4c0-2.6-0.1-5.1,0-7.7
					c0-0.6,0.5-1.2,0.9-1.6c2.1-1.8,4.3-3.5,6.5-5.3c1.5-1.3,1.9-2.9,1.4-4.8C148.6,236.6,148.7,236.3,148.7,236z"/>
				<path class="st4" d="M139.3,246.5c-0.2,0.3-0.4,0.8-0.8,1.4c-1.4-0.9-2.9-1.7-4.1-2.8c-1.1-0.9-2.2-1.1-3.4-0.5
					c-0.3,0.1-0.6,0.1-1.2,0.2c1-3,0.8-6.2,2.6-8.9c0.1,0,0.3,0,0.4,0c0,0.4,0,0.8-0.1,1.2c-0.4,1.5-0.1,2.9,1,4
					C135.5,243,137.4,244.7,139.3,246.5z"/>
				<path class="st3" d="M151.6,252c1.4,0,2.8,0,4.2,0c0.9,0,1.2,0.3,1.2,1.2c-0.1,1.1,0,2.2,0,3.3c-0.1,2.8-2.5,5.3-5.2,5.4
					c-2.6,0.1-5.2-2.4-5.4-5.2c-0.1-1.3,0-2.5,0-3.8c0-0.8,0.4-1,1.1-1C148.8,252,150.2,252,151.6,252z M147.5,253.2
					c0,1.3-0.1,2.4,0,3.5c0.2,2.2,1.9,3.9,3.8,4c1.9,0.1,3.7-1.1,4.2-3.1c0.3-1.4,0.3-2.9,0.4-4.4
					C152.9,253.2,150.3,253.2,147.5,253.2z"/>
				<path class="st4" d="M147.5,253.2c2.8,0,5.5,0,8.4,0c-0.1,1.5-0.1,3-0.4,4.4c-0.5,2-2.3,3.3-4.2,3.1c-1.9-0.1-3.6-1.8-3.8-4
					C147.4,255.6,147.5,254.5,147.5,253.2z M148.8,254.2c-0.2,2-0.3,3.8,1.5,5c1,0.6,2,0.5,3-0.2c1.2-1,1.6-2.8,1-4.7
					C152.5,254.2,150.7,254.2,148.8,254.2z"/>
				<path class="st3" d="M148.8,254.2c2,0,3.8,0,5.6,0c0.6,2,0.2,3.7-1,4.7c-0.9,0.8-2,0.9-3,0.2
					C148.4,258.1,148.6,256.2,148.8,254.2z"/>
			</g>
		</g>
	</g>
</g>
</svg>
